[2022-02-27 11:07:30,200] {taskinstance.py:876} INFO - Dependencies all met for <TaskInstance: dag-pipeline-iris-aula-ia-v1.modelProcessing.algoritmo2 2022-02-27T13:56:56.803564+00:00 [queued]>
[2022-02-27 11:07:30,232] {taskinstance.py:876} INFO - Dependencies all met for <TaskInstance: dag-pipeline-iris-aula-ia-v1.modelProcessing.algoritmo2 2022-02-27T13:56:56.803564+00:00 [queued]>
[2022-02-27 11:07:30,233] {taskinstance.py:1067} INFO - 
--------------------------------------------------------------------------------
[2022-02-27 11:07:30,233] {taskinstance.py:1068} INFO - Starting attempt 1 of 1
[2022-02-27 11:07:30,234] {taskinstance.py:1069} INFO - 
--------------------------------------------------------------------------------
[2022-02-27 11:07:30,271] {taskinstance.py:1087} INFO - Executing <Task(BashOperator): modelProcessing.algoritmo2> on 2022-02-27T13:56:56.803564+00:00
[2022-02-27 11:07:30,283] {standard_task_runner.py:52} INFO - Started process 4218 to run task
[2022-02-27 11:07:30,300] {standard_task_runner.py:76} INFO - Running: ['airflow', 'tasks', 'run', 'dag-pipeline-iris-aula-ia-v1', 'modelProcessing.algoritmo2', '2022-02-27T13:56:56.803564+00:00', '--job-id', '83', '--pool', 'default_pool', '--raw', '--subdir', 'DAGS_FOLDER/DagIrisV1.py', '--cfg-path', '/tmp/tmp2kxwlrx6', '--error-file', '/tmp/tmp7avx5trr']
[2022-02-27 11:07:30,300] {standard_task_runner.py:77} INFO - Job 83: Subtask modelProcessing.algoritmo2
[2022-02-27 11:07:30,375] {logging_mixin.py:104} INFO - Running <TaskInstance: dag-pipeline-iris-aula-ia-v1.modelProcessing.algoritmo2 2022-02-27T13:56:56.803564+00:00 [running]> on host mlops-VirtualBox
[2022-02-27 11:07:30,424] {taskinstance.py:1282} INFO - Exporting the following env vars:
AIRFLOW_CTX_DAG_OWNER=teste
AIRFLOW_CTX_DAG_ID=dag-pipeline-iris-aula-ia-v1
AIRFLOW_CTX_TASK_ID=modelProcessing.algoritmo2
AIRFLOW_CTX_EXECUTION_DATE=2022-02-27T13:56:56.803564+00:00
AIRFLOW_CTX_DAG_RUN_ID=scheduled__2022-02-27T13:56:56.803564+00:00
[2022-02-27 11:07:30,427] {subprocess.py:52} INFO - Tmp dir root location: 
 /tmp
[2022-02-27 11:07:30,428] {subprocess.py:63} INFO - Running command: ['bash', '-c', '\n            cd /home/mlops/airflow/dags/etl_scripts\n            python model_processing.py /home/mlops/airflow/dags/etl_scripts/featurestore/iris.txt /home/mlops/airflow/dags/etl_scripts/featurestore/irisEncoder.txt\n            ']
[2022-02-27 11:07:30,435] {subprocess.py:75} INFO - Output:
[2022-02-27 11:07:38,406] {subprocess.py:79} INFO - asdasd
[2022-02-27 11:07:38,406] {subprocess.py:79} INFO -     sepal_length,sepal_width,petal_length,petal_width,class,classEncoder
[2022-02-27 11:07:38,407] {subprocess.py:79} INFO - 113                    5.8,2.8,5.1,2.4,Iris-virginica,
[2022-02-27 11:07:38,407] {subprocess.py:79} INFO - 15                        5.4,3.9,1.3,0.4,Iris-setosa,
[2022-02-27 11:07:38,407] {subprocess.py:79} INFO - 3                         5.0,3.6,1.4,0.2,Iris-setosa,
[2022-02-27 11:07:38,407] {subprocess.py:79} INFO - 86                    6.3,2.3,4.4,1.3,Iris-versicolor,
[2022-02-27 11:07:38,407] {subprocess.py:79} INFO - 127                    6.4,2.8,5.6,2.1,Iris-virginica,
[2022-02-27 11:07:38,407] {subprocess.py:79} INFO - ..                                                 ...
[2022-02-27 11:07:38,408] {subprocess.py:79} INFO - 71                    6.3,2.5,4.9,1.5,Iris-versicolor,
[2022-02-27 11:07:38,408] {subprocess.py:79} INFO - 12                        4.3,3.0,1.1,0.1,Iris-setosa,
[2022-02-27 11:07:38,408] {subprocess.py:79} INFO - 50                    6.4,3.2,4.5,1.5,Iris-versicolor,
[2022-02-27 11:07:38,408] {subprocess.py:79} INFO - 7                         4.4,2.9,1.4,0.2,Iris-setosa,
[2022-02-27 11:07:38,408] {subprocess.py:79} INFO - 70                    6.1,2.8,4.0,1.3,Iris-versicolor,
[2022-02-27 11:07:38,408] {subprocess.py:79} INFO - 
[2022-02-27 11:07:38,408] {subprocess.py:79} INFO - [111 rows x 1 columns]
[2022-02-27 11:07:38,409] {subprocess.py:79} INFO - asdasdasd
[2022-02-27 11:07:38,419] {subprocess.py:79} INFO - Traceback (most recent call last):
[2022-02-27 11:07:38,419] {subprocess.py:79} INFO -   File "model_processing.py", line 48, in <module>
[2022-02-27 11:07:38,420] {subprocess.py:79} INFO -     train_x = train.drop(["sepal_length"], axis=1)
[2022-02-27 11:07:38,420] {subprocess.py:79} INFO -   File "/home/mlops/anaconda3/lib/python3.7/site-packages/pandas/core/frame.py", line 3997, in drop
[2022-02-27 11:07:38,420] {subprocess.py:79} INFO -     errors=errors,
[2022-02-27 11:07:38,420] {subprocess.py:79} INFO -   File "/home/mlops/anaconda3/lib/python3.7/site-packages/pandas/core/generic.py", line 3936, in drop
[2022-02-27 11:07:38,420] {subprocess.py:79} INFO -     obj = obj._drop_axis(labels, axis, level=level, errors=errors)
[2022-02-27 11:07:38,420] {subprocess.py:79} INFO -   File "/home/mlops/anaconda3/lib/python3.7/site-packages/pandas/core/generic.py", line 3970, in _drop_axis
[2022-02-27 11:07:38,420] {subprocess.py:79} INFO -     new_axis = axis.drop(labels, errors=errors)
[2022-02-27 11:07:38,420] {subprocess.py:79} INFO -   File "/home/mlops/anaconda3/lib/python3.7/site-packages/pandas/core/indexes/base.py", line 5018, in drop
[2022-02-27 11:07:38,420] {subprocess.py:79} INFO -     raise KeyError(f"{labels[mask]} not found in axis")
[2022-02-27 11:07:38,420] {subprocess.py:79} INFO - KeyError: "['sepal_length'] not found in axis"
[2022-02-27 11:07:38,818] {subprocess.py:83} INFO - Command exited with return code 1
[2022-02-27 11:07:38,832] {taskinstance.py:1481} ERROR - Task failed with exception
Traceback (most recent call last):
  File "/home/mlops/anaconda3/lib/python3.7/site-packages/airflow/models/taskinstance.py", line 1137, in _run_raw_task
    self._prepare_and_execute_task_with_callbacks(context, task)
  File "/home/mlops/anaconda3/lib/python3.7/site-packages/airflow/models/taskinstance.py", line 1311, in _prepare_and_execute_task_with_callbacks
    result = self._execute_task(context, task_copy)
  File "/home/mlops/anaconda3/lib/python3.7/site-packages/airflow/models/taskinstance.py", line 1341, in _execute_task
    result = task_copy.execute(context=context)
  File "/home/mlops/anaconda3/lib/python3.7/site-packages/airflow/operators/bash.py", line 180, in execute
    raise AirflowException('Bash command failed. The command returned a non-zero exit code.')
airflow.exceptions.AirflowException: Bash command failed. The command returned a non-zero exit code.
[2022-02-27 11:07:38,836] {taskinstance.py:1531} INFO - Marking task as FAILED. dag_id=dag-pipeline-iris-aula-ia-v1, task_id=modelProcessing.algoritmo2, execution_date=20220227T135656, start_date=20220227T140730, end_date=20220227T140738
[2022-02-27 11:07:38,914] {local_task_job.py:151} INFO - Task exited with return code 1
