[2022-03-08 21:00:40,543] {scheduler_job.py:182} INFO - Started process (PID=16995) to work on /home/mlops/anaconda3/lib/python3.7/site-packages/airflow/example_dags/tutorial_taskflow_api_etl_virtualenv.py
[2022-03-08 21:00:40,545] {scheduler_job.py:633} INFO - Processing file /home/mlops/anaconda3/lib/python3.7/site-packages/airflow/example_dags/tutorial_taskflow_api_etl_virtualenv.py for tasks to queue
[2022-03-08 21:00:40,546] {logging_mixin.py:104} INFO - [2022-03-08 21:00:40,546] {dagbag.py:487} INFO - Filling up the DagBag from /home/mlops/anaconda3/lib/python3.7/site-packages/airflow/example_dags/tutorial_taskflow_api_etl_virtualenv.py
[2022-03-08 21:00:40,564] {scheduler_job.py:643} INFO - DAG(s) dict_keys(['tutorial_taskflow_api_etl_virtualenv']) retrieved from /home/mlops/anaconda3/lib/python3.7/site-packages/airflow/example_dags/tutorial_taskflow_api_etl_virtualenv.py
[2022-03-08 21:00:41,113] {logging_mixin.py:104} INFO - [2022-03-08 21:00:41,113] {dag.py:1832} INFO - Sync 1 DAGs
[2022-03-08 21:00:41,131] {logging_mixin.py:104} INFO - [2022-03-08 21:00:41,131] {dag.py:2305} INFO - Setting next_dagrun for tutorial_taskflow_api_etl_virtualenv to None
[2022-03-08 21:00:41,159] {scheduler_job.py:190} INFO - Processing /home/mlops/anaconda3/lib/python3.7/site-packages/airflow/example_dags/tutorial_taskflow_api_etl_virtualenv.py took 0.624 seconds
[2022-03-08 21:01:41,604] {scheduler_job.py:182} INFO - Started process (PID=17064) to work on /home/mlops/anaconda3/lib/python3.7/site-packages/airflow/example_dags/tutorial_taskflow_api_etl_virtualenv.py
[2022-03-08 21:01:41,607] {scheduler_job.py:633} INFO - Processing file /home/mlops/anaconda3/lib/python3.7/site-packages/airflow/example_dags/tutorial_taskflow_api_etl_virtualenv.py for tasks to queue
[2022-03-08 21:01:41,608] {logging_mixin.py:104} INFO - [2022-03-08 21:01:41,608] {dagbag.py:487} INFO - Filling up the DagBag from /home/mlops/anaconda3/lib/python3.7/site-packages/airflow/example_dags/tutorial_taskflow_api_etl_virtualenv.py
[2022-03-08 21:01:41,638] {scheduler_job.py:643} INFO - DAG(s) dict_keys(['tutorial_taskflow_api_etl_virtualenv']) retrieved from /home/mlops/anaconda3/lib/python3.7/site-packages/airflow/example_dags/tutorial_taskflow_api_etl_virtualenv.py
[2022-03-08 21:01:42,070] {logging_mixin.py:104} INFO - [2022-03-08 21:01:42,070] {dag.py:1832} INFO - Sync 1 DAGs
[2022-03-08 21:01:42,083] {logging_mixin.py:104} INFO - [2022-03-08 21:01:42,083] {dag.py:2305} INFO - Setting next_dagrun for tutorial_taskflow_api_etl_virtualenv to None
[2022-03-08 21:01:42,098] {scheduler_job.py:190} INFO - Processing /home/mlops/anaconda3/lib/python3.7/site-packages/airflow/example_dags/tutorial_taskflow_api_etl_virtualenv.py took 0.501 seconds
[2022-03-08 21:02:24,678] {scheduler_job.py:182} INFO - Started process (PID=17187) to work on /home/mlops/anaconda3/lib/python3.7/site-packages/airflow/example_dags/tutorial_taskflow_api_etl_virtualenv.py
[2022-03-08 21:02:24,679] {scheduler_job.py:633} INFO - Processing file /home/mlops/anaconda3/lib/python3.7/site-packages/airflow/example_dags/tutorial_taskflow_api_etl_virtualenv.py for tasks to queue
[2022-03-08 21:02:24,680] {logging_mixin.py:104} INFO - [2022-03-08 21:02:24,680] {dagbag.py:487} INFO - Filling up the DagBag from /home/mlops/anaconda3/lib/python3.7/site-packages/airflow/example_dags/tutorial_taskflow_api_etl_virtualenv.py
[2022-03-08 21:02:24,707] {scheduler_job.py:643} INFO - DAG(s) dict_keys(['tutorial_taskflow_api_etl_virtualenv']) retrieved from /home/mlops/anaconda3/lib/python3.7/site-packages/airflow/example_dags/tutorial_taskflow_api_etl_virtualenv.py
[2022-03-08 21:02:25,340] {logging_mixin.py:104} INFO - [2022-03-08 21:02:25,340] {dag.py:1832} INFO - Sync 1 DAGs
[2022-03-08 21:02:25,352] {logging_mixin.py:104} INFO - [2022-03-08 21:02:25,352] {dag.py:2305} INFO - Setting next_dagrun for tutorial_taskflow_api_etl_virtualenv to None
[2022-03-08 21:02:25,368] {scheduler_job.py:190} INFO - Processing /home/mlops/anaconda3/lib/python3.7/site-packages/airflow/example_dags/tutorial_taskflow_api_etl_virtualenv.py took 0.695 seconds
[2022-03-08 21:03:11,210] {scheduler_job.py:182} INFO - Started process (PID=17265) to work on /home/mlops/anaconda3/lib/python3.7/site-packages/airflow/example_dags/tutorial_taskflow_api_etl_virtualenv.py
[2022-03-08 21:03:11,212] {scheduler_job.py:633} INFO - Processing file /home/mlops/anaconda3/lib/python3.7/site-packages/airflow/example_dags/tutorial_taskflow_api_etl_virtualenv.py for tasks to queue
[2022-03-08 21:03:11,213] {logging_mixin.py:104} INFO - [2022-03-08 21:03:11,213] {dagbag.py:487} INFO - Filling up the DagBag from /home/mlops/anaconda3/lib/python3.7/site-packages/airflow/example_dags/tutorial_taskflow_api_etl_virtualenv.py
[2022-03-08 21:03:11,229] {scheduler_job.py:643} INFO - DAG(s) dict_keys(['tutorial_taskflow_api_etl_virtualenv']) retrieved from /home/mlops/anaconda3/lib/python3.7/site-packages/airflow/example_dags/tutorial_taskflow_api_etl_virtualenv.py
[2022-03-08 21:03:11,699] {logging_mixin.py:104} INFO - [2022-03-08 21:03:11,699] {dag.py:1832} INFO - Sync 1 DAGs
[2022-03-08 21:03:11,711] {logging_mixin.py:104} INFO - [2022-03-08 21:03:11,711] {dag.py:2305} INFO - Setting next_dagrun for tutorial_taskflow_api_etl_virtualenv to None
[2022-03-08 21:03:11,726] {scheduler_job.py:190} INFO - Processing /home/mlops/anaconda3/lib/python3.7/site-packages/airflow/example_dags/tutorial_taskflow_api_etl_virtualenv.py took 0.521 seconds
[2022-03-08 21:49:13,051] {scheduler_job.py:182} INFO - Started process (PID=21015) to work on /home/mlops/anaconda3/lib/python3.7/site-packages/airflow/example_dags/tutorial_taskflow_api_etl_virtualenv.py
[2022-03-08 21:49:13,063] {scheduler_job.py:633} INFO - Processing file /home/mlops/anaconda3/lib/python3.7/site-packages/airflow/example_dags/tutorial_taskflow_api_etl_virtualenv.py for tasks to queue
[2022-03-08 21:49:13,064] {logging_mixin.py:104} INFO - [2022-03-08 21:49:13,064] {dagbag.py:487} INFO - Filling up the DagBag from /home/mlops/anaconda3/lib/python3.7/site-packages/airflow/example_dags/tutorial_taskflow_api_etl_virtualenv.py
[2022-03-08 21:49:13,101] {scheduler_job.py:643} INFO - DAG(s) dict_keys(['tutorial_taskflow_api_etl_virtualenv']) retrieved from /home/mlops/anaconda3/lib/python3.7/site-packages/airflow/example_dags/tutorial_taskflow_api_etl_virtualenv.py
[2022-03-08 21:49:14,028] {logging_mixin.py:104} INFO - [2022-03-08 21:49:14,028] {dag.py:1832} INFO - Sync 1 DAGs
[2022-03-08 21:49:14,063] {logging_mixin.py:104} INFO - [2022-03-08 21:49:14,063] {dag.py:2305} INFO - Setting next_dagrun for tutorial_taskflow_api_etl_virtualenv to None
[2022-03-08 21:49:14,084] {scheduler_job.py:190} INFO - Processing /home/mlops/anaconda3/lib/python3.7/site-packages/airflow/example_dags/tutorial_taskflow_api_etl_virtualenv.py took 1.045 seconds
[2022-03-08 21:50:17,683] {scheduler_job.py:182} INFO - Started process (PID=21086) to work on /home/mlops/anaconda3/lib/python3.7/site-packages/airflow/example_dags/tutorial_taskflow_api_etl_virtualenv.py
[2022-03-08 21:50:17,686] {scheduler_job.py:633} INFO - Processing file /home/mlops/anaconda3/lib/python3.7/site-packages/airflow/example_dags/tutorial_taskflow_api_etl_virtualenv.py for tasks to queue
[2022-03-08 21:50:17,687] {logging_mixin.py:104} INFO - [2022-03-08 21:50:17,687] {dagbag.py:487} INFO - Filling up the DagBag from /home/mlops/anaconda3/lib/python3.7/site-packages/airflow/example_dags/tutorial_taskflow_api_etl_virtualenv.py
[2022-03-08 21:50:17,707] {scheduler_job.py:643} INFO - DAG(s) dict_keys(['tutorial_taskflow_api_etl_virtualenv']) retrieved from /home/mlops/anaconda3/lib/python3.7/site-packages/airflow/example_dags/tutorial_taskflow_api_etl_virtualenv.py
[2022-03-08 21:50:18,516] {logging_mixin.py:104} INFO - [2022-03-08 21:50:18,515] {dag.py:1832} INFO - Sync 1 DAGs
[2022-03-08 21:50:18,545] {logging_mixin.py:104} INFO - [2022-03-08 21:50:18,545] {dag.py:2305} INFO - Setting next_dagrun for tutorial_taskflow_api_etl_virtualenv to None
[2022-03-08 21:50:18,580] {scheduler_job.py:190} INFO - Processing /home/mlops/anaconda3/lib/python3.7/site-packages/airflow/example_dags/tutorial_taskflow_api_etl_virtualenv.py took 0.902 seconds
[2022-03-08 21:51:09,271] {scheduler_job.py:182} INFO - Started process (PID=21291) to work on /home/mlops/anaconda3/lib/python3.7/site-packages/airflow/example_dags/tutorial_taskflow_api_etl_virtualenv.py
[2022-03-08 21:51:09,273] {scheduler_job.py:633} INFO - Processing file /home/mlops/anaconda3/lib/python3.7/site-packages/airflow/example_dags/tutorial_taskflow_api_etl_virtualenv.py for tasks to queue
[2022-03-08 21:51:09,274] {logging_mixin.py:104} INFO - [2022-03-08 21:51:09,274] {dagbag.py:487} INFO - Filling up the DagBag from /home/mlops/anaconda3/lib/python3.7/site-packages/airflow/example_dags/tutorial_taskflow_api_etl_virtualenv.py
[2022-03-08 21:51:09,304] {scheduler_job.py:643} INFO - DAG(s) dict_keys(['tutorial_taskflow_api_etl_virtualenv']) retrieved from /home/mlops/anaconda3/lib/python3.7/site-packages/airflow/example_dags/tutorial_taskflow_api_etl_virtualenv.py
[2022-03-08 21:51:09,327] {logging_mixin.py:104} INFO - [2022-03-08 21:51:09,327] {dag.py:1832} INFO - Sync 1 DAGs
[2022-03-08 21:51:09,354] {logging_mixin.py:104} INFO - [2022-03-08 21:51:09,354] {dag.py:2305} INFO - Setting next_dagrun for tutorial_taskflow_api_etl_virtualenv to None
[2022-03-08 21:51:09,373] {scheduler_job.py:190} INFO - Processing /home/mlops/anaconda3/lib/python3.7/site-packages/airflow/example_dags/tutorial_taskflow_api_etl_virtualenv.py took 0.107 seconds
[2022-03-08 21:52:04,031] {scheduler_job.py:182} INFO - Started process (PID=21508) to work on /home/mlops/anaconda3/lib/python3.7/site-packages/airflow/example_dags/tutorial_taskflow_api_etl_virtualenv.py
[2022-03-08 21:52:04,034] {scheduler_job.py:633} INFO - Processing file /home/mlops/anaconda3/lib/python3.7/site-packages/airflow/example_dags/tutorial_taskflow_api_etl_virtualenv.py for tasks to queue
[2022-03-08 21:52:04,035] {logging_mixin.py:104} INFO - [2022-03-08 21:52:04,035] {dagbag.py:487} INFO - Filling up the DagBag from /home/mlops/anaconda3/lib/python3.7/site-packages/airflow/example_dags/tutorial_taskflow_api_etl_virtualenv.py
[2022-03-08 21:52:04,059] {scheduler_job.py:643} INFO - DAG(s) dict_keys(['tutorial_taskflow_api_etl_virtualenv']) retrieved from /home/mlops/anaconda3/lib/python3.7/site-packages/airflow/example_dags/tutorial_taskflow_api_etl_virtualenv.py
[2022-03-08 21:52:04,545] {logging_mixin.py:104} INFO - [2022-03-08 21:52:04,545] {dag.py:1832} INFO - Sync 1 DAGs
[2022-03-08 21:52:04,566] {logging_mixin.py:104} INFO - [2022-03-08 21:52:04,566] {dag.py:2305} INFO - Setting next_dagrun for tutorial_taskflow_api_etl_virtualenv to None
[2022-03-08 21:52:04,584] {scheduler_job.py:190} INFO - Processing /home/mlops/anaconda3/lib/python3.7/site-packages/airflow/example_dags/tutorial_taskflow_api_etl_virtualenv.py took 0.559 seconds
[2022-03-08 21:53:02,663] {scheduler_job.py:182} INFO - Started process (PID=21688) to work on /home/mlops/anaconda3/lib/python3.7/site-packages/airflow/example_dags/tutorial_taskflow_api_etl_virtualenv.py
[2022-03-08 21:53:02,703] {scheduler_job.py:633} INFO - Processing file /home/mlops/anaconda3/lib/python3.7/site-packages/airflow/example_dags/tutorial_taskflow_api_etl_virtualenv.py for tasks to queue
[2022-03-08 21:53:02,703] {logging_mixin.py:104} INFO - [2022-03-08 21:53:02,703] {dagbag.py:487} INFO - Filling up the DagBag from /home/mlops/anaconda3/lib/python3.7/site-packages/airflow/example_dags/tutorial_taskflow_api_etl_virtualenv.py
[2022-03-08 21:53:02,783] {scheduler_job.py:643} INFO - DAG(s) dict_keys(['tutorial_taskflow_api_etl_virtualenv']) retrieved from /home/mlops/anaconda3/lib/python3.7/site-packages/airflow/example_dags/tutorial_taskflow_api_etl_virtualenv.py
[2022-03-08 21:53:03,289] {logging_mixin.py:104} INFO - [2022-03-08 21:53:03,289] {dag.py:1832} INFO - Sync 1 DAGs
[2022-03-08 21:53:03,310] {logging_mixin.py:104} INFO - [2022-03-08 21:53:03,310] {dag.py:2305} INFO - Setting next_dagrun for tutorial_taskflow_api_etl_virtualenv to None
[2022-03-08 21:53:03,330] {scheduler_job.py:190} INFO - Processing /home/mlops/anaconda3/lib/python3.7/site-packages/airflow/example_dags/tutorial_taskflow_api_etl_virtualenv.py took 0.695 seconds
[2022-03-08 21:53:44,147] {scheduler_job.py:182} INFO - Started process (PID=21743) to work on /home/mlops/anaconda3/lib/python3.7/site-packages/airflow/example_dags/tutorial_taskflow_api_etl_virtualenv.py
[2022-03-08 21:53:44,149] {scheduler_job.py:633} INFO - Processing file /home/mlops/anaconda3/lib/python3.7/site-packages/airflow/example_dags/tutorial_taskflow_api_etl_virtualenv.py for tasks to queue
[2022-03-08 21:53:44,150] {logging_mixin.py:104} INFO - [2022-03-08 21:53:44,149] {dagbag.py:487} INFO - Filling up the DagBag from /home/mlops/anaconda3/lib/python3.7/site-packages/airflow/example_dags/tutorial_taskflow_api_etl_virtualenv.py
[2022-03-08 21:53:44,168] {scheduler_job.py:643} INFO - DAG(s) dict_keys(['tutorial_taskflow_api_etl_virtualenv']) retrieved from /home/mlops/anaconda3/lib/python3.7/site-packages/airflow/example_dags/tutorial_taskflow_api_etl_virtualenv.py
[2022-03-08 21:53:44,553] {logging_mixin.py:104} INFO - [2022-03-08 21:53:44,553] {dag.py:1832} INFO - Sync 1 DAGs
[2022-03-08 21:53:44,567] {logging_mixin.py:104} INFO - [2022-03-08 21:53:44,567] {dag.py:2305} INFO - Setting next_dagrun for tutorial_taskflow_api_etl_virtualenv to None
[2022-03-08 21:53:44,590] {scheduler_job.py:190} INFO - Processing /home/mlops/anaconda3/lib/python3.7/site-packages/airflow/example_dags/tutorial_taskflow_api_etl_virtualenv.py took 0.447 seconds
[2022-03-08 21:54:33,152] {scheduler_job.py:182} INFO - Started process (PID=21892) to work on /home/mlops/anaconda3/lib/python3.7/site-packages/airflow/example_dags/tutorial_taskflow_api_etl_virtualenv.py
[2022-03-08 21:54:33,154] {scheduler_job.py:633} INFO - Processing file /home/mlops/anaconda3/lib/python3.7/site-packages/airflow/example_dags/tutorial_taskflow_api_etl_virtualenv.py for tasks to queue
[2022-03-08 21:54:33,155] {logging_mixin.py:104} INFO - [2022-03-08 21:54:33,155] {dagbag.py:487} INFO - Filling up the DagBag from /home/mlops/anaconda3/lib/python3.7/site-packages/airflow/example_dags/tutorial_taskflow_api_etl_virtualenv.py
[2022-03-08 21:54:33,183] {scheduler_job.py:643} INFO - DAG(s) dict_keys(['tutorial_taskflow_api_etl_virtualenv']) retrieved from /home/mlops/anaconda3/lib/python3.7/site-packages/airflow/example_dags/tutorial_taskflow_api_etl_virtualenv.py
[2022-03-08 21:54:33,804] {logging_mixin.py:104} INFO - [2022-03-08 21:54:33,804] {dag.py:1832} INFO - Sync 1 DAGs
[2022-03-08 21:54:33,818] {logging_mixin.py:104} INFO - [2022-03-08 21:54:33,818] {dag.py:2305} INFO - Setting next_dagrun for tutorial_taskflow_api_etl_virtualenv to None
[2022-03-08 21:54:33,835] {scheduler_job.py:190} INFO - Processing /home/mlops/anaconda3/lib/python3.7/site-packages/airflow/example_dags/tutorial_taskflow_api_etl_virtualenv.py took 0.689 seconds
[2022-03-08 21:55:23,017] {scheduler_job.py:182} INFO - Started process (PID=22057) to work on /home/mlops/anaconda3/lib/python3.7/site-packages/airflow/example_dags/tutorial_taskflow_api_etl_virtualenv.py
[2022-03-08 21:55:23,019] {scheduler_job.py:633} INFO - Processing file /home/mlops/anaconda3/lib/python3.7/site-packages/airflow/example_dags/tutorial_taskflow_api_etl_virtualenv.py for tasks to queue
[2022-03-08 21:55:23,021] {logging_mixin.py:104} INFO - [2022-03-08 21:55:23,021] {dagbag.py:487} INFO - Filling up the DagBag from /home/mlops/anaconda3/lib/python3.7/site-packages/airflow/example_dags/tutorial_taskflow_api_etl_virtualenv.py
[2022-03-08 21:55:23,090] {scheduler_job.py:643} INFO - DAG(s) dict_keys(['tutorial_taskflow_api_etl_virtualenv']) retrieved from /home/mlops/anaconda3/lib/python3.7/site-packages/airflow/example_dags/tutorial_taskflow_api_etl_virtualenv.py
[2022-03-08 21:55:23,246] {logging_mixin.py:104} INFO - [2022-03-08 21:55:23,246] {dag.py:1832} INFO - Sync 1 DAGs
[2022-03-08 21:55:23,296] {logging_mixin.py:104} INFO - [2022-03-08 21:55:23,296] {dag.py:2305} INFO - Setting next_dagrun for tutorial_taskflow_api_etl_virtualenv to None
[2022-03-08 21:55:23,354] {scheduler_job.py:190} INFO - Processing /home/mlops/anaconda3/lib/python3.7/site-packages/airflow/example_dags/tutorial_taskflow_api_etl_virtualenv.py took 0.343 seconds
[2022-03-08 21:56:11,396] {scheduler_job.py:182} INFO - Started process (PID=22189) to work on /home/mlops/anaconda3/lib/python3.7/site-packages/airflow/example_dags/tutorial_taskflow_api_etl_virtualenv.py
[2022-03-08 21:56:11,399] {scheduler_job.py:633} INFO - Processing file /home/mlops/anaconda3/lib/python3.7/site-packages/airflow/example_dags/tutorial_taskflow_api_etl_virtualenv.py for tasks to queue
[2022-03-08 21:56:11,401] {logging_mixin.py:104} INFO - [2022-03-08 21:56:11,400] {dagbag.py:487} INFO - Filling up the DagBag from /home/mlops/anaconda3/lib/python3.7/site-packages/airflow/example_dags/tutorial_taskflow_api_etl_virtualenv.py
[2022-03-08 21:56:11,437] {scheduler_job.py:643} INFO - DAG(s) dict_keys(['tutorial_taskflow_api_etl_virtualenv']) retrieved from /home/mlops/anaconda3/lib/python3.7/site-packages/airflow/example_dags/tutorial_taskflow_api_etl_virtualenv.py
[2022-03-08 21:56:12,225] {logging_mixin.py:104} INFO - [2022-03-08 21:56:12,224] {dag.py:1832} INFO - Sync 1 DAGs
[2022-03-08 21:56:12,260] {logging_mixin.py:104} INFO - [2022-03-08 21:56:12,259] {dag.py:2305} INFO - Setting next_dagrun for tutorial_taskflow_api_etl_virtualenv to None
[2022-03-08 21:56:12,287] {scheduler_job.py:190} INFO - Processing /home/mlops/anaconda3/lib/python3.7/site-packages/airflow/example_dags/tutorial_taskflow_api_etl_virtualenv.py took 0.896 seconds
[2022-03-08 21:57:05,151] {scheduler_job.py:182} INFO - Started process (PID=22294) to work on /home/mlops/anaconda3/lib/python3.7/site-packages/airflow/example_dags/tutorial_taskflow_api_etl_virtualenv.py
[2022-03-08 21:57:05,153] {scheduler_job.py:633} INFO - Processing file /home/mlops/anaconda3/lib/python3.7/site-packages/airflow/example_dags/tutorial_taskflow_api_etl_virtualenv.py for tasks to queue
[2022-03-08 21:57:05,154] {logging_mixin.py:104} INFO - [2022-03-08 21:57:05,154] {dagbag.py:487} INFO - Filling up the DagBag from /home/mlops/anaconda3/lib/python3.7/site-packages/airflow/example_dags/tutorial_taskflow_api_etl_virtualenv.py
[2022-03-08 21:57:05,174] {scheduler_job.py:643} INFO - DAG(s) dict_keys(['tutorial_taskflow_api_etl_virtualenv']) retrieved from /home/mlops/anaconda3/lib/python3.7/site-packages/airflow/example_dags/tutorial_taskflow_api_etl_virtualenv.py
[2022-03-08 21:57:05,606] {logging_mixin.py:104} INFO - [2022-03-08 21:57:05,606] {dag.py:1832} INFO - Sync 1 DAGs
[2022-03-08 21:57:05,623] {logging_mixin.py:104} INFO - [2022-03-08 21:57:05,623] {dag.py:2305} INFO - Setting next_dagrun for tutorial_taskflow_api_etl_virtualenv to None
[2022-03-08 21:57:05,653] {scheduler_job.py:190} INFO - Processing /home/mlops/anaconda3/lib/python3.7/site-packages/airflow/example_dags/tutorial_taskflow_api_etl_virtualenv.py took 0.509 seconds
[2022-03-08 21:57:50,175] {scheduler_job.py:182} INFO - Started process (PID=22451) to work on /home/mlops/anaconda3/lib/python3.7/site-packages/airflow/example_dags/tutorial_taskflow_api_etl_virtualenv.py
[2022-03-08 21:57:50,190] {scheduler_job.py:633} INFO - Processing file /home/mlops/anaconda3/lib/python3.7/site-packages/airflow/example_dags/tutorial_taskflow_api_etl_virtualenv.py for tasks to queue
[2022-03-08 21:57:50,191] {logging_mixin.py:104} INFO - [2022-03-08 21:57:50,191] {dagbag.py:487} INFO - Filling up the DagBag from /home/mlops/anaconda3/lib/python3.7/site-packages/airflow/example_dags/tutorial_taskflow_api_etl_virtualenv.py
[2022-03-08 21:57:50,215] {scheduler_job.py:643} INFO - DAG(s) dict_keys(['tutorial_taskflow_api_etl_virtualenv']) retrieved from /home/mlops/anaconda3/lib/python3.7/site-packages/airflow/example_dags/tutorial_taskflow_api_etl_virtualenv.py
[2022-03-08 21:57:50,914] {logging_mixin.py:104} INFO - [2022-03-08 21:57:50,914] {dag.py:1832} INFO - Sync 1 DAGs
[2022-03-08 21:57:50,939] {logging_mixin.py:104} INFO - [2022-03-08 21:57:50,939] {dag.py:2305} INFO - Setting next_dagrun for tutorial_taskflow_api_etl_virtualenv to None
[2022-03-08 21:57:50,957] {scheduler_job.py:190} INFO - Processing /home/mlops/anaconda3/lib/python3.7/site-packages/airflow/example_dags/tutorial_taskflow_api_etl_virtualenv.py took 0.788 seconds
[2022-03-08 21:58:42,922] {scheduler_job.py:182} INFO - Started process (PID=22581) to work on /home/mlops/anaconda3/lib/python3.7/site-packages/airflow/example_dags/tutorial_taskflow_api_etl_virtualenv.py
[2022-03-08 21:58:42,926] {scheduler_job.py:633} INFO - Processing file /home/mlops/anaconda3/lib/python3.7/site-packages/airflow/example_dags/tutorial_taskflow_api_etl_virtualenv.py for tasks to queue
[2022-03-08 21:58:42,927] {logging_mixin.py:104} INFO - [2022-03-08 21:58:42,926] {dagbag.py:487} INFO - Filling up the DagBag from /home/mlops/anaconda3/lib/python3.7/site-packages/airflow/example_dags/tutorial_taskflow_api_etl_virtualenv.py
[2022-03-08 21:58:42,952] {scheduler_job.py:643} INFO - DAG(s) dict_keys(['tutorial_taskflow_api_etl_virtualenv']) retrieved from /home/mlops/anaconda3/lib/python3.7/site-packages/airflow/example_dags/tutorial_taskflow_api_etl_virtualenv.py
[2022-03-08 21:58:43,505] {logging_mixin.py:104} INFO - [2022-03-08 21:58:43,505] {dag.py:1832} INFO - Sync 1 DAGs
[2022-03-08 21:58:43,539] {logging_mixin.py:104} INFO - [2022-03-08 21:58:43,538] {dag.py:2305} INFO - Setting next_dagrun for tutorial_taskflow_api_etl_virtualenv to None
[2022-03-08 21:58:43,575] {scheduler_job.py:190} INFO - Processing /home/mlops/anaconda3/lib/python3.7/site-packages/airflow/example_dags/tutorial_taskflow_api_etl_virtualenv.py took 0.684 seconds
[2022-03-08 21:59:32,595] {scheduler_job.py:182} INFO - Started process (PID=22766) to work on /home/mlops/anaconda3/lib/python3.7/site-packages/airflow/example_dags/tutorial_taskflow_api_etl_virtualenv.py
[2022-03-08 21:59:32,596] {scheduler_job.py:633} INFO - Processing file /home/mlops/anaconda3/lib/python3.7/site-packages/airflow/example_dags/tutorial_taskflow_api_etl_virtualenv.py for tasks to queue
[2022-03-08 21:59:32,597] {logging_mixin.py:104} INFO - [2022-03-08 21:59:32,597] {dagbag.py:487} INFO - Filling up the DagBag from /home/mlops/anaconda3/lib/python3.7/site-packages/airflow/example_dags/tutorial_taskflow_api_etl_virtualenv.py
[2022-03-08 21:59:32,626] {scheduler_job.py:643} INFO - DAG(s) dict_keys(['tutorial_taskflow_api_etl_virtualenv']) retrieved from /home/mlops/anaconda3/lib/python3.7/site-packages/airflow/example_dags/tutorial_taskflow_api_etl_virtualenv.py
[2022-03-08 21:59:33,079] {logging_mixin.py:104} INFO - [2022-03-08 21:59:33,079] {dag.py:1832} INFO - Sync 1 DAGs
[2022-03-08 21:59:33,095] {logging_mixin.py:104} INFO - [2022-03-08 21:59:33,095] {dag.py:2305} INFO - Setting next_dagrun for tutorial_taskflow_api_etl_virtualenv to None
[2022-03-08 21:59:33,110] {scheduler_job.py:190} INFO - Processing /home/mlops/anaconda3/lib/python3.7/site-packages/airflow/example_dags/tutorial_taskflow_api_etl_virtualenv.py took 0.520 seconds
[2022-03-08 22:00:26,906] {scheduler_job.py:182} INFO - Started process (PID=22841) to work on /home/mlops/anaconda3/lib/python3.7/site-packages/airflow/example_dags/tutorial_taskflow_api_etl_virtualenv.py
[2022-03-08 22:00:26,929] {scheduler_job.py:633} INFO - Processing file /home/mlops/anaconda3/lib/python3.7/site-packages/airflow/example_dags/tutorial_taskflow_api_etl_virtualenv.py for tasks to queue
[2022-03-08 22:00:26,937] {logging_mixin.py:104} INFO - [2022-03-08 22:00:26,937] {dagbag.py:487} INFO - Filling up the DagBag from /home/mlops/anaconda3/lib/python3.7/site-packages/airflow/example_dags/tutorial_taskflow_api_etl_virtualenv.py
[2022-03-08 22:00:26,998] {scheduler_job.py:643} INFO - DAG(s) dict_keys(['tutorial_taskflow_api_etl_virtualenv']) retrieved from /home/mlops/anaconda3/lib/python3.7/site-packages/airflow/example_dags/tutorial_taskflow_api_etl_virtualenv.py
[2022-03-08 22:00:27,698] {logging_mixin.py:104} INFO - [2022-03-08 22:00:27,698] {dag.py:1832} INFO - Sync 1 DAGs
[2022-03-08 22:00:27,719] {logging_mixin.py:104} INFO - [2022-03-08 22:00:27,718] {dag.py:2305} INFO - Setting next_dagrun for tutorial_taskflow_api_etl_virtualenv to None
[2022-03-08 22:00:27,745] {scheduler_job.py:190} INFO - Processing /home/mlops/anaconda3/lib/python3.7/site-packages/airflow/example_dags/tutorial_taskflow_api_etl_virtualenv.py took 0.850 seconds
[2022-03-08 22:01:27,489] {scheduler_job.py:182} INFO - Started process (PID=22934) to work on /home/mlops/anaconda3/lib/python3.7/site-packages/airflow/example_dags/tutorial_taskflow_api_etl_virtualenv.py
[2022-03-08 22:01:27,490] {scheduler_job.py:633} INFO - Processing file /home/mlops/anaconda3/lib/python3.7/site-packages/airflow/example_dags/tutorial_taskflow_api_etl_virtualenv.py for tasks to queue
[2022-03-08 22:01:27,491] {logging_mixin.py:104} INFO - [2022-03-08 22:01:27,491] {dagbag.py:487} INFO - Filling up the DagBag from /home/mlops/anaconda3/lib/python3.7/site-packages/airflow/example_dags/tutorial_taskflow_api_etl_virtualenv.py
[2022-03-08 22:01:27,515] {scheduler_job.py:643} INFO - DAG(s) dict_keys(['tutorial_taskflow_api_etl_virtualenv']) retrieved from /home/mlops/anaconda3/lib/python3.7/site-packages/airflow/example_dags/tutorial_taskflow_api_etl_virtualenv.py
[2022-03-08 22:01:28,034] {logging_mixin.py:104} INFO - [2022-03-08 22:01:28,034] {dag.py:1832} INFO - Sync 1 DAGs
[2022-03-08 22:01:28,066] {logging_mixin.py:104} INFO - [2022-03-08 22:01:28,066] {dag.py:2305} INFO - Setting next_dagrun for tutorial_taskflow_api_etl_virtualenv to None
[2022-03-08 22:01:28,088] {scheduler_job.py:190} INFO - Processing /home/mlops/anaconda3/lib/python3.7/site-packages/airflow/example_dags/tutorial_taskflow_api_etl_virtualenv.py took 0.604 seconds
[2022-03-08 22:02:24,242] {scheduler_job.py:182} INFO - Started process (PID=23127) to work on /home/mlops/anaconda3/lib/python3.7/site-packages/airflow/example_dags/tutorial_taskflow_api_etl_virtualenv.py
[2022-03-08 22:02:24,246] {scheduler_job.py:633} INFO - Processing file /home/mlops/anaconda3/lib/python3.7/site-packages/airflow/example_dags/tutorial_taskflow_api_etl_virtualenv.py for tasks to queue
[2022-03-08 22:02:24,247] {logging_mixin.py:104} INFO - [2022-03-08 22:02:24,247] {dagbag.py:487} INFO - Filling up the DagBag from /home/mlops/anaconda3/lib/python3.7/site-packages/airflow/example_dags/tutorial_taskflow_api_etl_virtualenv.py
[2022-03-08 22:02:24,279] {scheduler_job.py:643} INFO - DAG(s) dict_keys(['tutorial_taskflow_api_etl_virtualenv']) retrieved from /home/mlops/anaconda3/lib/python3.7/site-packages/airflow/example_dags/tutorial_taskflow_api_etl_virtualenv.py
[2022-03-08 22:02:25,682] {logging_mixin.py:104} INFO - [2022-03-08 22:02:25,681] {dag.py:1832} INFO - Sync 1 DAGs
[2022-03-08 22:02:25,721] {logging_mixin.py:104} INFO - [2022-03-08 22:02:25,721] {dag.py:2305} INFO - Setting next_dagrun for tutorial_taskflow_api_etl_virtualenv to None
[2022-03-08 22:02:25,761] {scheduler_job.py:190} INFO - Processing /home/mlops/anaconda3/lib/python3.7/site-packages/airflow/example_dags/tutorial_taskflow_api_etl_virtualenv.py took 1.525 seconds
[2022-03-08 22:03:12,963] {scheduler_job.py:182} INFO - Started process (PID=23277) to work on /home/mlops/anaconda3/lib/python3.7/site-packages/airflow/example_dags/tutorial_taskflow_api_etl_virtualenv.py
[2022-03-08 22:03:12,966] {scheduler_job.py:633} INFO - Processing file /home/mlops/anaconda3/lib/python3.7/site-packages/airflow/example_dags/tutorial_taskflow_api_etl_virtualenv.py for tasks to queue
[2022-03-08 22:03:12,967] {logging_mixin.py:104} INFO - [2022-03-08 22:03:12,967] {dagbag.py:487} INFO - Filling up the DagBag from /home/mlops/anaconda3/lib/python3.7/site-packages/airflow/example_dags/tutorial_taskflow_api_etl_virtualenv.py
[2022-03-08 22:03:12,990] {scheduler_job.py:643} INFO - DAG(s) dict_keys(['tutorial_taskflow_api_etl_virtualenv']) retrieved from /home/mlops/anaconda3/lib/python3.7/site-packages/airflow/example_dags/tutorial_taskflow_api_etl_virtualenv.py
[2022-03-08 22:03:13,413] {logging_mixin.py:104} INFO - [2022-03-08 22:03:13,413] {dag.py:1832} INFO - Sync 1 DAGs
[2022-03-08 22:03:13,434] {logging_mixin.py:104} INFO - [2022-03-08 22:03:13,434] {dag.py:2305} INFO - Setting next_dagrun for tutorial_taskflow_api_etl_virtualenv to None
[2022-03-08 22:03:13,454] {scheduler_job.py:190} INFO - Processing /home/mlops/anaconda3/lib/python3.7/site-packages/airflow/example_dags/tutorial_taskflow_api_etl_virtualenv.py took 0.494 seconds
[2022-03-08 22:03:50,850] {scheduler_job.py:182} INFO - Started process (PID=23310) to work on /home/mlops/anaconda3/lib/python3.7/site-packages/airflow/example_dags/tutorial_taskflow_api_etl_virtualenv.py
[2022-03-08 22:03:50,853] {scheduler_job.py:633} INFO - Processing file /home/mlops/anaconda3/lib/python3.7/site-packages/airflow/example_dags/tutorial_taskflow_api_etl_virtualenv.py for tasks to queue
[2022-03-08 22:03:50,855] {logging_mixin.py:104} INFO - [2022-03-08 22:03:50,855] {dagbag.py:487} INFO - Filling up the DagBag from /home/mlops/anaconda3/lib/python3.7/site-packages/airflow/example_dags/tutorial_taskflow_api_etl_virtualenv.py
[2022-03-08 22:03:50,880] {scheduler_job.py:643} INFO - DAG(s) dict_keys(['tutorial_taskflow_api_etl_virtualenv']) retrieved from /home/mlops/anaconda3/lib/python3.7/site-packages/airflow/example_dags/tutorial_taskflow_api_etl_virtualenv.py
[2022-03-08 22:03:51,281] {logging_mixin.py:104} INFO - [2022-03-08 22:03:51,281] {dag.py:1832} INFO - Sync 1 DAGs
[2022-03-08 22:03:51,295] {logging_mixin.py:104} INFO - [2022-03-08 22:03:51,295] {dag.py:2305} INFO - Setting next_dagrun for tutorial_taskflow_api_etl_virtualenv to None
[2022-03-08 22:03:51,310] {scheduler_job.py:190} INFO - Processing /home/mlops/anaconda3/lib/python3.7/site-packages/airflow/example_dags/tutorial_taskflow_api_etl_virtualenv.py took 0.466 seconds
[2022-03-08 22:04:31,335] {scheduler_job.py:182} INFO - Started process (PID=23346) to work on /home/mlops/anaconda3/lib/python3.7/site-packages/airflow/example_dags/tutorial_taskflow_api_etl_virtualenv.py
[2022-03-08 22:04:31,336] {scheduler_job.py:633} INFO - Processing file /home/mlops/anaconda3/lib/python3.7/site-packages/airflow/example_dags/tutorial_taskflow_api_etl_virtualenv.py for tasks to queue
[2022-03-08 22:04:31,337] {logging_mixin.py:104} INFO - [2022-03-08 22:04:31,337] {dagbag.py:487} INFO - Filling up the DagBag from /home/mlops/anaconda3/lib/python3.7/site-packages/airflow/example_dags/tutorial_taskflow_api_etl_virtualenv.py
[2022-03-08 22:04:31,358] {scheduler_job.py:643} INFO - DAG(s) dict_keys(['tutorial_taskflow_api_etl_virtualenv']) retrieved from /home/mlops/anaconda3/lib/python3.7/site-packages/airflow/example_dags/tutorial_taskflow_api_etl_virtualenv.py
[2022-03-08 22:04:31,746] {logging_mixin.py:104} INFO - [2022-03-08 22:04:31,745] {dag.py:1832} INFO - Sync 1 DAGs
[2022-03-08 22:04:31,776] {logging_mixin.py:104} INFO - [2022-03-08 22:04:31,775] {dag.py:2305} INFO - Setting next_dagrun for tutorial_taskflow_api_etl_virtualenv to None
[2022-03-08 22:04:31,793] {scheduler_job.py:190} INFO - Processing /home/mlops/anaconda3/lib/python3.7/site-packages/airflow/example_dags/tutorial_taskflow_api_etl_virtualenv.py took 0.462 seconds
[2022-03-08 22:05:40,387] {scheduler_job.py:182} INFO - Started process (PID=23562) to work on /home/mlops/anaconda3/lib/python3.7/site-packages/airflow/example_dags/tutorial_taskflow_api_etl_virtualenv.py
[2022-03-08 22:05:40,390] {scheduler_job.py:633} INFO - Processing file /home/mlops/anaconda3/lib/python3.7/site-packages/airflow/example_dags/tutorial_taskflow_api_etl_virtualenv.py for tasks to queue
[2022-03-08 22:05:40,391] {logging_mixin.py:104} INFO - [2022-03-08 22:05:40,391] {dagbag.py:487} INFO - Filling up the DagBag from /home/mlops/anaconda3/lib/python3.7/site-packages/airflow/example_dags/tutorial_taskflow_api_etl_virtualenv.py
[2022-03-08 22:05:40,424] {scheduler_job.py:643} INFO - DAG(s) dict_keys(['tutorial_taskflow_api_etl_virtualenv']) retrieved from /home/mlops/anaconda3/lib/python3.7/site-packages/airflow/example_dags/tutorial_taskflow_api_etl_virtualenv.py
[2022-03-08 22:05:41,375] {logging_mixin.py:104} INFO - [2022-03-08 22:05:41,375] {dag.py:1832} INFO - Sync 1 DAGs
[2022-03-08 22:05:41,391] {logging_mixin.py:104} INFO - [2022-03-08 22:05:41,391] {dag.py:2305} INFO - Setting next_dagrun for tutorial_taskflow_api_etl_virtualenv to None
[2022-03-08 22:05:41,406] {scheduler_job.py:190} INFO - Processing /home/mlops/anaconda3/lib/python3.7/site-packages/airflow/example_dags/tutorial_taskflow_api_etl_virtualenv.py took 1.024 seconds
[2022-03-08 22:06:55,018] {scheduler_job.py:182} INFO - Started process (PID=23966) to work on /home/mlops/anaconda3/lib/python3.7/site-packages/airflow/example_dags/tutorial_taskflow_api_etl_virtualenv.py
[2022-03-08 22:06:55,020] {scheduler_job.py:633} INFO - Processing file /home/mlops/anaconda3/lib/python3.7/site-packages/airflow/example_dags/tutorial_taskflow_api_etl_virtualenv.py for tasks to queue
[2022-03-08 22:06:55,021] {logging_mixin.py:104} INFO - [2022-03-08 22:06:55,021] {dagbag.py:487} INFO - Filling up the DagBag from /home/mlops/anaconda3/lib/python3.7/site-packages/airflow/example_dags/tutorial_taskflow_api_etl_virtualenv.py
[2022-03-08 22:06:55,042] {scheduler_job.py:643} INFO - DAG(s) dict_keys(['tutorial_taskflow_api_etl_virtualenv']) retrieved from /home/mlops/anaconda3/lib/python3.7/site-packages/airflow/example_dags/tutorial_taskflow_api_etl_virtualenv.py
[2022-03-08 22:06:55,258] {logging_mixin.py:104} INFO - [2022-03-08 22:06:55,258] {dag.py:1832} INFO - Sync 1 DAGs
[2022-03-08 22:06:55,274] {logging_mixin.py:104} INFO - [2022-03-08 22:06:55,274] {dag.py:2305} INFO - Setting next_dagrun for tutorial_taskflow_api_etl_virtualenv to None
[2022-03-08 22:06:55,303] {scheduler_job.py:190} INFO - Processing /home/mlops/anaconda3/lib/python3.7/site-packages/airflow/example_dags/tutorial_taskflow_api_etl_virtualenv.py took 0.290 seconds
[2022-03-08 22:07:46,515] {scheduler_job.py:182} INFO - Started process (PID=24173) to work on /home/mlops/anaconda3/lib/python3.7/site-packages/airflow/example_dags/tutorial_taskflow_api_etl_virtualenv.py
[2022-03-08 22:07:46,519] {scheduler_job.py:633} INFO - Processing file /home/mlops/anaconda3/lib/python3.7/site-packages/airflow/example_dags/tutorial_taskflow_api_etl_virtualenv.py for tasks to queue
[2022-03-08 22:07:46,520] {logging_mixin.py:104} INFO - [2022-03-08 22:07:46,520] {dagbag.py:487} INFO - Filling up the DagBag from /home/mlops/anaconda3/lib/python3.7/site-packages/airflow/example_dags/tutorial_taskflow_api_etl_virtualenv.py
[2022-03-08 22:07:46,555] {scheduler_job.py:643} INFO - DAG(s) dict_keys(['tutorial_taskflow_api_etl_virtualenv']) retrieved from /home/mlops/anaconda3/lib/python3.7/site-packages/airflow/example_dags/tutorial_taskflow_api_etl_virtualenv.py
[2022-03-08 22:07:47,090] {logging_mixin.py:104} INFO - [2022-03-08 22:07:47,090] {dag.py:1832} INFO - Sync 1 DAGs
[2022-03-08 22:07:47,119] {logging_mixin.py:104} INFO - [2022-03-08 22:07:47,118] {dag.py:2305} INFO - Setting next_dagrun for tutorial_taskflow_api_etl_virtualenv to None
[2022-03-08 22:07:47,151] {scheduler_job.py:190} INFO - Processing /home/mlops/anaconda3/lib/python3.7/site-packages/airflow/example_dags/tutorial_taskflow_api_etl_virtualenv.py took 0.640 seconds
[2022-03-08 22:08:23,864] {scheduler_job.py:182} INFO - Started process (PID=24293) to work on /home/mlops/anaconda3/lib/python3.7/site-packages/airflow/example_dags/tutorial_taskflow_api_etl_virtualenv.py
[2022-03-08 22:08:23,867] {scheduler_job.py:633} INFO - Processing file /home/mlops/anaconda3/lib/python3.7/site-packages/airflow/example_dags/tutorial_taskflow_api_etl_virtualenv.py for tasks to queue
[2022-03-08 22:08:23,868] {logging_mixin.py:104} INFO - [2022-03-08 22:08:23,868] {dagbag.py:487} INFO - Filling up the DagBag from /home/mlops/anaconda3/lib/python3.7/site-packages/airflow/example_dags/tutorial_taskflow_api_etl_virtualenv.py
[2022-03-08 22:08:23,965] {scheduler_job.py:643} INFO - DAG(s) dict_keys(['tutorial_taskflow_api_etl_virtualenv']) retrieved from /home/mlops/anaconda3/lib/python3.7/site-packages/airflow/example_dags/tutorial_taskflow_api_etl_virtualenv.py
[2022-03-08 22:08:24,884] {logging_mixin.py:104} INFO - [2022-03-08 22:08:24,884] {dag.py:1832} INFO - Sync 1 DAGs
[2022-03-08 22:08:24,903] {logging_mixin.py:104} INFO - [2022-03-08 22:08:24,903] {dag.py:2305} INFO - Setting next_dagrun for tutorial_taskflow_api_etl_virtualenv to None
[2022-03-08 22:08:24,925] {scheduler_job.py:190} INFO - Processing /home/mlops/anaconda3/lib/python3.7/site-packages/airflow/example_dags/tutorial_taskflow_api_etl_virtualenv.py took 1.067 seconds
[2022-03-08 22:09:19,792] {scheduler_job.py:182} INFO - Started process (PID=24443) to work on /home/mlops/anaconda3/lib/python3.7/site-packages/airflow/example_dags/tutorial_taskflow_api_etl_virtualenv.py
[2022-03-08 22:09:19,795] {scheduler_job.py:633} INFO - Processing file /home/mlops/anaconda3/lib/python3.7/site-packages/airflow/example_dags/tutorial_taskflow_api_etl_virtualenv.py for tasks to queue
[2022-03-08 22:09:19,796] {logging_mixin.py:104} INFO - [2022-03-08 22:09:19,796] {dagbag.py:487} INFO - Filling up the DagBag from /home/mlops/anaconda3/lib/python3.7/site-packages/airflow/example_dags/tutorial_taskflow_api_etl_virtualenv.py
[2022-03-08 22:09:19,824] {scheduler_job.py:643} INFO - DAG(s) dict_keys(['tutorial_taskflow_api_etl_virtualenv']) retrieved from /home/mlops/anaconda3/lib/python3.7/site-packages/airflow/example_dags/tutorial_taskflow_api_etl_virtualenv.py
[2022-03-08 22:09:20,579] {logging_mixin.py:104} INFO - [2022-03-08 22:09:20,578] {dag.py:1832} INFO - Sync 1 DAGs
[2022-03-08 22:09:20,645] {logging_mixin.py:104} INFO - [2022-03-08 22:09:20,645] {dag.py:2305} INFO - Setting next_dagrun for tutorial_taskflow_api_etl_virtualenv to None
[2022-03-08 22:09:20,674] {scheduler_job.py:190} INFO - Processing /home/mlops/anaconda3/lib/python3.7/site-packages/airflow/example_dags/tutorial_taskflow_api_etl_virtualenv.py took 0.889 seconds
[2022-03-08 22:10:15,318] {scheduler_job.py:182} INFO - Started process (PID=24612) to work on /home/mlops/anaconda3/lib/python3.7/site-packages/airflow/example_dags/tutorial_taskflow_api_etl_virtualenv.py
[2022-03-08 22:10:15,321] {scheduler_job.py:633} INFO - Processing file /home/mlops/anaconda3/lib/python3.7/site-packages/airflow/example_dags/tutorial_taskflow_api_etl_virtualenv.py for tasks to queue
[2022-03-08 22:10:15,322] {logging_mixin.py:104} INFO - [2022-03-08 22:10:15,322] {dagbag.py:487} INFO - Filling up the DagBag from /home/mlops/anaconda3/lib/python3.7/site-packages/airflow/example_dags/tutorial_taskflow_api_etl_virtualenv.py
[2022-03-08 22:10:15,356] {scheduler_job.py:643} INFO - DAG(s) dict_keys(['tutorial_taskflow_api_etl_virtualenv']) retrieved from /home/mlops/anaconda3/lib/python3.7/site-packages/airflow/example_dags/tutorial_taskflow_api_etl_virtualenv.py
[2022-03-08 22:10:15,922] {logging_mixin.py:104} INFO - [2022-03-08 22:10:15,922] {dag.py:1832} INFO - Sync 1 DAGs
[2022-03-08 22:10:15,948] {logging_mixin.py:104} INFO - [2022-03-08 22:10:15,948] {dag.py:2305} INFO - Setting next_dagrun for tutorial_taskflow_api_etl_virtualenv to None
[2022-03-08 22:10:15,970] {scheduler_job.py:190} INFO - Processing /home/mlops/anaconda3/lib/python3.7/site-packages/airflow/example_dags/tutorial_taskflow_api_etl_virtualenv.py took 0.657 seconds
[2022-03-08 22:11:00,168] {scheduler_job.py:182} INFO - Started process (PID=24724) to work on /home/mlops/anaconda3/lib/python3.7/site-packages/airflow/example_dags/tutorial_taskflow_api_etl_virtualenv.py
[2022-03-08 22:11:00,170] {scheduler_job.py:633} INFO - Processing file /home/mlops/anaconda3/lib/python3.7/site-packages/airflow/example_dags/tutorial_taskflow_api_etl_virtualenv.py for tasks to queue
[2022-03-08 22:11:00,171] {logging_mixin.py:104} INFO - [2022-03-08 22:11:00,171] {dagbag.py:487} INFO - Filling up the DagBag from /home/mlops/anaconda3/lib/python3.7/site-packages/airflow/example_dags/tutorial_taskflow_api_etl_virtualenv.py
[2022-03-08 22:11:00,257] {scheduler_job.py:643} INFO - DAG(s) dict_keys(['tutorial_taskflow_api_etl_virtualenv']) retrieved from /home/mlops/anaconda3/lib/python3.7/site-packages/airflow/example_dags/tutorial_taskflow_api_etl_virtualenv.py
[2022-03-08 22:11:01,183] {logging_mixin.py:104} INFO - [2022-03-08 22:11:01,182] {dag.py:1832} INFO - Sync 1 DAGs
[2022-03-08 22:11:01,205] {logging_mixin.py:104} INFO - [2022-03-08 22:11:01,205] {dag.py:2305} INFO - Setting next_dagrun for tutorial_taskflow_api_etl_virtualenv to None
[2022-03-08 22:11:01,251] {scheduler_job.py:190} INFO - Processing /home/mlops/anaconda3/lib/python3.7/site-packages/airflow/example_dags/tutorial_taskflow_api_etl_virtualenv.py took 1.087 seconds
[2022-03-08 22:11:49,690] {scheduler_job.py:182} INFO - Started process (PID=24863) to work on /home/mlops/anaconda3/lib/python3.7/site-packages/airflow/example_dags/tutorial_taskflow_api_etl_virtualenv.py
[2022-03-08 22:11:49,692] {scheduler_job.py:633} INFO - Processing file /home/mlops/anaconda3/lib/python3.7/site-packages/airflow/example_dags/tutorial_taskflow_api_etl_virtualenv.py for tasks to queue
[2022-03-08 22:11:49,694] {logging_mixin.py:104} INFO - [2022-03-08 22:11:49,694] {dagbag.py:487} INFO - Filling up the DagBag from /home/mlops/anaconda3/lib/python3.7/site-packages/airflow/example_dags/tutorial_taskflow_api_etl_virtualenv.py
[2022-03-08 22:11:49,730] {scheduler_job.py:643} INFO - DAG(s) dict_keys(['tutorial_taskflow_api_etl_virtualenv']) retrieved from /home/mlops/anaconda3/lib/python3.7/site-packages/airflow/example_dags/tutorial_taskflow_api_etl_virtualenv.py
[2022-03-08 22:11:50,832] {logging_mixin.py:104} INFO - [2022-03-08 22:11:50,832] {dag.py:1832} INFO - Sync 1 DAGs
[2022-03-08 22:11:50,892] {logging_mixin.py:104} INFO - [2022-03-08 22:11:50,892] {dag.py:2305} INFO - Setting next_dagrun for tutorial_taskflow_api_etl_virtualenv to None
[2022-03-08 22:11:50,928] {scheduler_job.py:190} INFO - Processing /home/mlops/anaconda3/lib/python3.7/site-packages/airflow/example_dags/tutorial_taskflow_api_etl_virtualenv.py took 1.244 seconds
[2022-03-08 22:12:54,218] {scheduler_job.py:182} INFO - Started process (PID=25041) to work on /home/mlops/anaconda3/lib/python3.7/site-packages/airflow/example_dags/tutorial_taskflow_api_etl_virtualenv.py
[2022-03-08 22:12:54,222] {scheduler_job.py:633} INFO - Processing file /home/mlops/anaconda3/lib/python3.7/site-packages/airflow/example_dags/tutorial_taskflow_api_etl_virtualenv.py for tasks to queue
[2022-03-08 22:12:54,235] {logging_mixin.py:104} INFO - [2022-03-08 22:12:54,235] {dagbag.py:487} INFO - Filling up the DagBag from /home/mlops/anaconda3/lib/python3.7/site-packages/airflow/example_dags/tutorial_taskflow_api_etl_virtualenv.py
[2022-03-08 22:12:54,271] {scheduler_job.py:643} INFO - DAG(s) dict_keys(['tutorial_taskflow_api_etl_virtualenv']) retrieved from /home/mlops/anaconda3/lib/python3.7/site-packages/airflow/example_dags/tutorial_taskflow_api_etl_virtualenv.py
[2022-03-08 22:12:55,517] {logging_mixin.py:104} INFO - [2022-03-08 22:12:55,517] {dag.py:1832} INFO - Sync 1 DAGs
[2022-03-08 22:12:55,591] {logging_mixin.py:104} INFO - [2022-03-08 22:12:55,591] {dag.py:2305} INFO - Setting next_dagrun for tutorial_taskflow_api_etl_virtualenv to None
[2022-03-08 22:12:55,643] {scheduler_job.py:190} INFO - Processing /home/mlops/anaconda3/lib/python3.7/site-packages/airflow/example_dags/tutorial_taskflow_api_etl_virtualenv.py took 1.445 seconds
[2022-03-08 22:14:01,103] {scheduler_job.py:182} INFO - Started process (PID=25192) to work on /home/mlops/anaconda3/lib/python3.7/site-packages/airflow/example_dags/tutorial_taskflow_api_etl_virtualenv.py
[2022-03-08 22:14:01,108] {scheduler_job.py:633} INFO - Processing file /home/mlops/anaconda3/lib/python3.7/site-packages/airflow/example_dags/tutorial_taskflow_api_etl_virtualenv.py for tasks to queue
[2022-03-08 22:14:01,110] {logging_mixin.py:104} INFO - [2022-03-08 22:14:01,109] {dagbag.py:487} INFO - Filling up the DagBag from /home/mlops/anaconda3/lib/python3.7/site-packages/airflow/example_dags/tutorial_taskflow_api_etl_virtualenv.py
[2022-03-08 22:14:01,164] {scheduler_job.py:643} INFO - DAG(s) dict_keys(['tutorial_taskflow_api_etl_virtualenv']) retrieved from /home/mlops/anaconda3/lib/python3.7/site-packages/airflow/example_dags/tutorial_taskflow_api_etl_virtualenv.py
[2022-03-08 22:14:03,080] {logging_mixin.py:104} INFO - [2022-03-08 22:14:03,080] {dag.py:1832} INFO - Sync 1 DAGs
[2022-03-08 22:14:03,169] {logging_mixin.py:104} INFO - [2022-03-08 22:14:03,169] {dag.py:2305} INFO - Setting next_dagrun for tutorial_taskflow_api_etl_virtualenv to None
[2022-03-08 22:14:03,216] {scheduler_job.py:190} INFO - Processing /home/mlops/anaconda3/lib/python3.7/site-packages/airflow/example_dags/tutorial_taskflow_api_etl_virtualenv.py took 2.119 seconds
[2022-03-08 22:15:03,398] {scheduler_job.py:182} INFO - Started process (PID=25344) to work on /home/mlops/anaconda3/lib/python3.7/site-packages/airflow/example_dags/tutorial_taskflow_api_etl_virtualenv.py
[2022-03-08 22:15:03,402] {scheduler_job.py:633} INFO - Processing file /home/mlops/anaconda3/lib/python3.7/site-packages/airflow/example_dags/tutorial_taskflow_api_etl_virtualenv.py for tasks to queue
[2022-03-08 22:15:03,403] {logging_mixin.py:104} INFO - [2022-03-08 22:15:03,403] {dagbag.py:487} INFO - Filling up the DagBag from /home/mlops/anaconda3/lib/python3.7/site-packages/airflow/example_dags/tutorial_taskflow_api_etl_virtualenv.py
[2022-03-08 22:15:03,444] {scheduler_job.py:643} INFO - DAG(s) dict_keys(['tutorial_taskflow_api_etl_virtualenv']) retrieved from /home/mlops/anaconda3/lib/python3.7/site-packages/airflow/example_dags/tutorial_taskflow_api_etl_virtualenv.py
[2022-03-08 22:15:04,516] {logging_mixin.py:104} INFO - [2022-03-08 22:15:04,516] {dag.py:1832} INFO - Sync 1 DAGs
[2022-03-08 22:15:04,557] {logging_mixin.py:104} INFO - [2022-03-08 22:15:04,557] {dag.py:2305} INFO - Setting next_dagrun for tutorial_taskflow_api_etl_virtualenv to None
[2022-03-08 22:15:04,585] {scheduler_job.py:190} INFO - Processing /home/mlops/anaconda3/lib/python3.7/site-packages/airflow/example_dags/tutorial_taskflow_api_etl_virtualenv.py took 1.191 seconds
[2022-03-08 22:15:57,845] {scheduler_job.py:182} INFO - Started process (PID=25477) to work on /home/mlops/anaconda3/lib/python3.7/site-packages/airflow/example_dags/tutorial_taskflow_api_etl_virtualenv.py
[2022-03-08 22:15:57,850] {scheduler_job.py:633} INFO - Processing file /home/mlops/anaconda3/lib/python3.7/site-packages/airflow/example_dags/tutorial_taskflow_api_etl_virtualenv.py for tasks to queue
[2022-03-08 22:15:57,852] {logging_mixin.py:104} INFO - [2022-03-08 22:15:57,851] {dagbag.py:487} INFO - Filling up the DagBag from /home/mlops/anaconda3/lib/python3.7/site-packages/airflow/example_dags/tutorial_taskflow_api_etl_virtualenv.py
[2022-03-08 22:15:57,922] {scheduler_job.py:643} INFO - DAG(s) dict_keys(['tutorial_taskflow_api_etl_virtualenv']) retrieved from /home/mlops/anaconda3/lib/python3.7/site-packages/airflow/example_dags/tutorial_taskflow_api_etl_virtualenv.py
[2022-03-08 22:15:59,453] {logging_mixin.py:104} INFO - [2022-03-08 22:15:59,452] {dag.py:1832} INFO - Sync 1 DAGs
[2022-03-08 22:15:59,562] {logging_mixin.py:104} INFO - [2022-03-08 22:15:59,562] {dag.py:2305} INFO - Setting next_dagrun for tutorial_taskflow_api_etl_virtualenv to None
[2022-03-08 22:15:59,647] {scheduler_job.py:190} INFO - Processing /home/mlops/anaconda3/lib/python3.7/site-packages/airflow/example_dags/tutorial_taskflow_api_etl_virtualenv.py took 1.812 seconds
[2022-03-08 22:16:52,836] {scheduler_job.py:182} INFO - Started process (PID=25715) to work on /home/mlops/anaconda3/lib/python3.7/site-packages/airflow/example_dags/tutorial_taskflow_api_etl_virtualenv.py
[2022-03-08 22:16:52,839] {scheduler_job.py:633} INFO - Processing file /home/mlops/anaconda3/lib/python3.7/site-packages/airflow/example_dags/tutorial_taskflow_api_etl_virtualenv.py for tasks to queue
[2022-03-08 22:16:52,840] {logging_mixin.py:104} INFO - [2022-03-08 22:16:52,840] {dagbag.py:487} INFO - Filling up the DagBag from /home/mlops/anaconda3/lib/python3.7/site-packages/airflow/example_dags/tutorial_taskflow_api_etl_virtualenv.py
[2022-03-08 22:16:53,114] {scheduler_job.py:643} INFO - DAG(s) dict_keys(['tutorial_taskflow_api_etl_virtualenv']) retrieved from /home/mlops/anaconda3/lib/python3.7/site-packages/airflow/example_dags/tutorial_taskflow_api_etl_virtualenv.py
[2022-03-08 22:16:56,437] {logging_mixin.py:104} INFO - [2022-03-08 22:16:56,436] {dag.py:1832} INFO - Sync 1 DAGs
[2022-03-08 22:16:56,705] {logging_mixin.py:104} INFO - [2022-03-08 22:16:56,705] {dag.py:2305} INFO - Setting next_dagrun for tutorial_taskflow_api_etl_virtualenv to None
[2022-03-08 22:16:56,917] {scheduler_job.py:190} INFO - Processing /home/mlops/anaconda3/lib/python3.7/site-packages/airflow/example_dags/tutorial_taskflow_api_etl_virtualenv.py took 4.087 seconds
[2022-03-08 22:18:35,434] {scheduler_job.py:182} INFO - Started process (PID=26001) to work on /home/mlops/anaconda3/lib/python3.7/site-packages/airflow/example_dags/tutorial_taskflow_api_etl_virtualenv.py
[2022-03-08 22:18:35,450] {scheduler_job.py:633} INFO - Processing file /home/mlops/anaconda3/lib/python3.7/site-packages/airflow/example_dags/tutorial_taskflow_api_etl_virtualenv.py for tasks to queue
[2022-03-08 22:18:35,451] {logging_mixin.py:104} INFO - [2022-03-08 22:18:35,451] {dagbag.py:487} INFO - Filling up the DagBag from /home/mlops/anaconda3/lib/python3.7/site-packages/airflow/example_dags/tutorial_taskflow_api_etl_virtualenv.py
[2022-03-08 22:18:35,570] {scheduler_job.py:643} INFO - DAG(s) dict_keys(['tutorial_taskflow_api_etl_virtualenv']) retrieved from /home/mlops/anaconda3/lib/python3.7/site-packages/airflow/example_dags/tutorial_taskflow_api_etl_virtualenv.py
[2022-03-08 22:18:38,059] {logging_mixin.py:104} INFO - [2022-03-08 22:18:38,058] {dag.py:1832} INFO - Sync 1 DAGs
[2022-03-08 22:18:38,216] {logging_mixin.py:104} INFO - [2022-03-08 22:18:38,216] {dag.py:2305} INFO - Setting next_dagrun for tutorial_taskflow_api_etl_virtualenv to None
[2022-03-08 22:18:38,393] {scheduler_job.py:190} INFO - Processing /home/mlops/anaconda3/lib/python3.7/site-packages/airflow/example_dags/tutorial_taskflow_api_etl_virtualenv.py took 2.978 seconds
[2022-03-08 22:19:45,583] {scheduler_job.py:182} INFO - Started process (PID=26199) to work on /home/mlops/anaconda3/lib/python3.7/site-packages/airflow/example_dags/tutorial_taskflow_api_etl_virtualenv.py
[2022-03-08 22:19:45,585] {scheduler_job.py:633} INFO - Processing file /home/mlops/anaconda3/lib/python3.7/site-packages/airflow/example_dags/tutorial_taskflow_api_etl_virtualenv.py for tasks to queue
[2022-03-08 22:19:45,588] {logging_mixin.py:104} INFO - [2022-03-08 22:19:45,588] {dagbag.py:487} INFO - Filling up the DagBag from /home/mlops/anaconda3/lib/python3.7/site-packages/airflow/example_dags/tutorial_taskflow_api_etl_virtualenv.py
[2022-03-08 22:19:45,681] {scheduler_job.py:643} INFO - DAG(s) dict_keys(['tutorial_taskflow_api_etl_virtualenv']) retrieved from /home/mlops/anaconda3/lib/python3.7/site-packages/airflow/example_dags/tutorial_taskflow_api_etl_virtualenv.py
[2022-03-08 22:19:46,477] {logging_mixin.py:104} INFO - [2022-03-08 22:19:46,476] {dag.py:1832} INFO - Sync 1 DAGs
[2022-03-08 22:19:46,506] {logging_mixin.py:104} INFO - [2022-03-08 22:19:46,506] {dag.py:2305} INFO - Setting next_dagrun for tutorial_taskflow_api_etl_virtualenv to None
[2022-03-08 22:19:46,533] {scheduler_job.py:190} INFO - Processing /home/mlops/anaconda3/lib/python3.7/site-packages/airflow/example_dags/tutorial_taskflow_api_etl_virtualenv.py took 0.956 seconds
[2022-03-08 22:20:52,083] {scheduler_job.py:182} INFO - Started process (PID=26338) to work on /home/mlops/anaconda3/lib/python3.7/site-packages/airflow/example_dags/tutorial_taskflow_api_etl_virtualenv.py
[2022-03-08 22:20:52,094] {scheduler_job.py:633} INFO - Processing file /home/mlops/anaconda3/lib/python3.7/site-packages/airflow/example_dags/tutorial_taskflow_api_etl_virtualenv.py for tasks to queue
[2022-03-08 22:20:52,096] {logging_mixin.py:104} INFO - [2022-03-08 22:20:52,095] {dagbag.py:487} INFO - Filling up the DagBag from /home/mlops/anaconda3/lib/python3.7/site-packages/airflow/example_dags/tutorial_taskflow_api_etl_virtualenv.py
[2022-03-08 22:20:52,133] {scheduler_job.py:643} INFO - DAG(s) dict_keys(['tutorial_taskflow_api_etl_virtualenv']) retrieved from /home/mlops/anaconda3/lib/python3.7/site-packages/airflow/example_dags/tutorial_taskflow_api_etl_virtualenv.py
[2022-03-08 22:20:52,882] {logging_mixin.py:104} INFO - [2022-03-08 22:20:52,881] {dag.py:1832} INFO - Sync 1 DAGs
[2022-03-08 22:20:52,948] {logging_mixin.py:104} INFO - [2022-03-08 22:20:52,948] {dag.py:2305} INFO - Setting next_dagrun for tutorial_taskflow_api_etl_virtualenv to None
[2022-03-08 22:20:52,973] {scheduler_job.py:190} INFO - Processing /home/mlops/anaconda3/lib/python3.7/site-packages/airflow/example_dags/tutorial_taskflow_api_etl_virtualenv.py took 0.899 seconds
[2022-03-08 22:21:54,100] {scheduler_job.py:182} INFO - Started process (PID=26504) to work on /home/mlops/anaconda3/lib/python3.7/site-packages/airflow/example_dags/tutorial_taskflow_api_etl_virtualenv.py
[2022-03-08 22:21:54,102] {scheduler_job.py:633} INFO - Processing file /home/mlops/anaconda3/lib/python3.7/site-packages/airflow/example_dags/tutorial_taskflow_api_etl_virtualenv.py for tasks to queue
[2022-03-08 22:21:54,104] {logging_mixin.py:104} INFO - [2022-03-08 22:21:54,103] {dagbag.py:487} INFO - Filling up the DagBag from /home/mlops/anaconda3/lib/python3.7/site-packages/airflow/example_dags/tutorial_taskflow_api_etl_virtualenv.py
[2022-03-08 22:21:54,152] {scheduler_job.py:643} INFO - DAG(s) dict_keys(['tutorial_taskflow_api_etl_virtualenv']) retrieved from /home/mlops/anaconda3/lib/python3.7/site-packages/airflow/example_dags/tutorial_taskflow_api_etl_virtualenv.py
[2022-03-08 22:21:55,023] {logging_mixin.py:104} INFO - [2022-03-08 22:21:55,022] {dag.py:1832} INFO - Sync 1 DAGs
[2022-03-08 22:21:55,067] {logging_mixin.py:104} INFO - [2022-03-08 22:21:55,067] {dag.py:2305} INFO - Setting next_dagrun for tutorial_taskflow_api_etl_virtualenv to None
[2022-03-08 22:21:55,126] {scheduler_job.py:190} INFO - Processing /home/mlops/anaconda3/lib/python3.7/site-packages/airflow/example_dags/tutorial_taskflow_api_etl_virtualenv.py took 1.035 seconds
[2022-03-08 22:22:45,477] {scheduler_job.py:182} INFO - Started process (PID=26574) to work on /home/mlops/anaconda3/lib/python3.7/site-packages/airflow/example_dags/tutorial_taskflow_api_etl_virtualenv.py
[2022-03-08 22:22:45,480] {scheduler_job.py:633} INFO - Processing file /home/mlops/anaconda3/lib/python3.7/site-packages/airflow/example_dags/tutorial_taskflow_api_etl_virtualenv.py for tasks to queue
[2022-03-08 22:22:45,482] {logging_mixin.py:104} INFO - [2022-03-08 22:22:45,481] {dagbag.py:487} INFO - Filling up the DagBag from /home/mlops/anaconda3/lib/python3.7/site-packages/airflow/example_dags/tutorial_taskflow_api_etl_virtualenv.py
[2022-03-08 22:22:45,533] {scheduler_job.py:643} INFO - DAG(s) dict_keys(['tutorial_taskflow_api_etl_virtualenv']) retrieved from /home/mlops/anaconda3/lib/python3.7/site-packages/airflow/example_dags/tutorial_taskflow_api_etl_virtualenv.py
[2022-03-08 22:22:45,613] {logging_mixin.py:104} INFO - [2022-03-08 22:22:45,612] {dag.py:1832} INFO - Sync 1 DAGs
[2022-03-08 22:22:45,645] {logging_mixin.py:104} INFO - [2022-03-08 22:22:45,645] {dag.py:2305} INFO - Setting next_dagrun for tutorial_taskflow_api_etl_virtualenv to None
[2022-03-08 22:22:45,675] {scheduler_job.py:190} INFO - Processing /home/mlops/anaconda3/lib/python3.7/site-packages/airflow/example_dags/tutorial_taskflow_api_etl_virtualenv.py took 0.203 seconds
