[2022-02-24 21:00:22,086] {scheduler_job.py:182} INFO - Started process (PID=10327) to work on /home/mlops/anaconda3/lib/python3.7/site-packages/airflow/example_dags/example_complex.py
[2022-02-24 21:00:22,089] {scheduler_job.py:633} INFO - Processing file /home/mlops/anaconda3/lib/python3.7/site-packages/airflow/example_dags/example_complex.py for tasks to queue
[2022-02-24 21:00:22,090] {logging_mixin.py:104} INFO - [2022-02-24 21:00:22,090] {dagbag.py:487} INFO - Filling up the DagBag from /home/mlops/anaconda3/lib/python3.7/site-packages/airflow/example_dags/example_complex.py
[2022-02-24 21:00:22,125] {scheduler_job.py:643} INFO - DAG(s) dict_keys(['example_complex']) retrieved from /home/mlops/anaconda3/lib/python3.7/site-packages/airflow/example_dags/example_complex.py
[2022-02-24 21:00:22,555] {logging_mixin.py:104} INFO - [2022-02-24 21:00:22,555] {dag.py:1832} INFO - Sync 1 DAGs
[2022-02-24 21:00:22,575] {logging_mixin.py:104} INFO - [2022-02-24 21:00:22,575] {dag.py:2305} INFO - Setting next_dagrun for example_complex to None
[2022-02-24 21:00:22,596] {scheduler_job.py:190} INFO - Processing /home/mlops/anaconda3/lib/python3.7/site-packages/airflow/example_dags/example_complex.py took 0.519 seconds
[2022-02-24 21:01:13,792] {scheduler_job.py:182} INFO - Started process (PID=10373) to work on /home/mlops/anaconda3/lib/python3.7/site-packages/airflow/example_dags/example_complex.py
[2022-02-24 21:01:13,794] {scheduler_job.py:633} INFO - Processing file /home/mlops/anaconda3/lib/python3.7/site-packages/airflow/example_dags/example_complex.py for tasks to queue
[2022-02-24 21:01:13,795] {logging_mixin.py:104} INFO - [2022-02-24 21:01:13,795] {dagbag.py:487} INFO - Filling up the DagBag from /home/mlops/anaconda3/lib/python3.7/site-packages/airflow/example_dags/example_complex.py
[2022-02-24 21:01:13,820] {scheduler_job.py:643} INFO - DAG(s) dict_keys(['example_complex']) retrieved from /home/mlops/anaconda3/lib/python3.7/site-packages/airflow/example_dags/example_complex.py
[2022-02-24 21:01:13,847] {logging_mixin.py:104} INFO - [2022-02-24 21:01:13,847] {dag.py:1832} INFO - Sync 1 DAGs
[2022-02-24 21:01:13,870] {logging_mixin.py:104} INFO - [2022-02-24 21:01:13,869] {dag.py:2305} INFO - Setting next_dagrun for example_complex to None
[2022-02-24 21:01:13,890] {scheduler_job.py:190} INFO - Processing /home/mlops/anaconda3/lib/python3.7/site-packages/airflow/example_dags/example_complex.py took 0.102 seconds
[2022-02-24 21:02:04,320] {scheduler_job.py:182} INFO - Started process (PID=10414) to work on /home/mlops/anaconda3/lib/python3.7/site-packages/airflow/example_dags/example_complex.py
[2022-02-24 21:02:04,325] {scheduler_job.py:633} INFO - Processing file /home/mlops/anaconda3/lib/python3.7/site-packages/airflow/example_dags/example_complex.py for tasks to queue
[2022-02-24 21:02:04,326] {logging_mixin.py:104} INFO - [2022-02-24 21:02:04,326] {dagbag.py:487} INFO - Filling up the DagBag from /home/mlops/anaconda3/lib/python3.7/site-packages/airflow/example_dags/example_complex.py
[2022-02-24 21:02:04,360] {scheduler_job.py:643} INFO - DAG(s) dict_keys(['example_complex']) retrieved from /home/mlops/anaconda3/lib/python3.7/site-packages/airflow/example_dags/example_complex.py
[2022-02-24 21:02:04,388] {logging_mixin.py:104} INFO - [2022-02-24 21:02:04,388] {dag.py:1832} INFO - Sync 1 DAGs
[2022-02-24 21:02:04,405] {logging_mixin.py:104} INFO - [2022-02-24 21:02:04,405] {dag.py:2305} INFO - Setting next_dagrun for example_complex to None
[2022-02-24 21:02:04,419] {scheduler_job.py:190} INFO - Processing /home/mlops/anaconda3/lib/python3.7/site-packages/airflow/example_dags/example_complex.py took 0.110 seconds
[2022-02-24 21:02:56,113] {scheduler_job.py:182} INFO - Started process (PID=10454) to work on /home/mlops/anaconda3/lib/python3.7/site-packages/airflow/example_dags/example_complex.py
[2022-02-24 21:02:56,115] {scheduler_job.py:633} INFO - Processing file /home/mlops/anaconda3/lib/python3.7/site-packages/airflow/example_dags/example_complex.py for tasks to queue
[2022-02-24 21:02:56,117] {logging_mixin.py:104} INFO - [2022-02-24 21:02:56,116] {dagbag.py:487} INFO - Filling up the DagBag from /home/mlops/anaconda3/lib/python3.7/site-packages/airflow/example_dags/example_complex.py
[2022-02-24 21:02:56,154] {scheduler_job.py:643} INFO - DAG(s) dict_keys(['example_complex']) retrieved from /home/mlops/anaconda3/lib/python3.7/site-packages/airflow/example_dags/example_complex.py
[2022-02-24 21:02:56,193] {logging_mixin.py:104} INFO - [2022-02-24 21:02:56,193] {dag.py:1832} INFO - Sync 1 DAGs
[2022-02-24 21:02:56,214] {logging_mixin.py:104} INFO - [2022-02-24 21:02:56,214] {dag.py:2305} INFO - Setting next_dagrun for example_complex to None
[2022-02-24 21:02:56,235] {scheduler_job.py:190} INFO - Processing /home/mlops/anaconda3/lib/python3.7/site-packages/airflow/example_dags/example_complex.py took 0.126 seconds
[2022-02-24 21:03:48,960] {scheduler_job.py:182} INFO - Started process (PID=10504) to work on /home/mlops/anaconda3/lib/python3.7/site-packages/airflow/example_dags/example_complex.py
[2022-02-24 21:03:48,962] {scheduler_job.py:633} INFO - Processing file /home/mlops/anaconda3/lib/python3.7/site-packages/airflow/example_dags/example_complex.py for tasks to queue
[2022-02-24 21:03:48,963] {logging_mixin.py:104} INFO - [2022-02-24 21:03:48,963] {dagbag.py:487} INFO - Filling up the DagBag from /home/mlops/anaconda3/lib/python3.7/site-packages/airflow/example_dags/example_complex.py
[2022-02-24 21:03:48,989] {scheduler_job.py:643} INFO - DAG(s) dict_keys(['example_complex']) retrieved from /home/mlops/anaconda3/lib/python3.7/site-packages/airflow/example_dags/example_complex.py
[2022-02-24 21:03:49,018] {logging_mixin.py:104} INFO - [2022-02-24 21:03:49,018] {dag.py:1832} INFO - Sync 1 DAGs
[2022-02-24 21:03:49,033] {logging_mixin.py:104} INFO - [2022-02-24 21:03:49,033] {dag.py:2305} INFO - Setting next_dagrun for example_complex to None
[2022-02-24 21:03:49,048] {scheduler_job.py:190} INFO - Processing /home/mlops/anaconda3/lib/python3.7/site-packages/airflow/example_dags/example_complex.py took 0.092 seconds
[2022-02-24 21:04:41,849] {scheduler_job.py:182} INFO - Started process (PID=10590) to work on /home/mlops/anaconda3/lib/python3.7/site-packages/airflow/example_dags/example_complex.py
[2022-02-24 21:04:41,851] {scheduler_job.py:633} INFO - Processing file /home/mlops/anaconda3/lib/python3.7/site-packages/airflow/example_dags/example_complex.py for tasks to queue
[2022-02-24 21:04:41,855] {logging_mixin.py:104} INFO - [2022-02-24 21:04:41,855] {dagbag.py:487} INFO - Filling up the DagBag from /home/mlops/anaconda3/lib/python3.7/site-packages/airflow/example_dags/example_complex.py
[2022-02-24 21:04:41,892] {scheduler_job.py:643} INFO - DAG(s) dict_keys(['example_complex']) retrieved from /home/mlops/anaconda3/lib/python3.7/site-packages/airflow/example_dags/example_complex.py
[2022-02-24 21:04:41,928] {logging_mixin.py:104} INFO - [2022-02-24 21:04:41,928] {dag.py:1832} INFO - Sync 1 DAGs
[2022-02-24 21:04:41,950] {logging_mixin.py:104} INFO - [2022-02-24 21:04:41,950] {dag.py:2305} INFO - Setting next_dagrun for example_complex to None
[2022-02-24 21:04:41,973] {scheduler_job.py:190} INFO - Processing /home/mlops/anaconda3/lib/python3.7/site-packages/airflow/example_dags/example_complex.py took 0.131 seconds
[2022-02-24 21:05:33,673] {scheduler_job.py:182} INFO - Started process (PID=10632) to work on /home/mlops/anaconda3/lib/python3.7/site-packages/airflow/example_dags/example_complex.py
[2022-02-24 21:05:33,674] {scheduler_job.py:633} INFO - Processing file /home/mlops/anaconda3/lib/python3.7/site-packages/airflow/example_dags/example_complex.py for tasks to queue
[2022-02-24 21:05:33,675] {logging_mixin.py:104} INFO - [2022-02-24 21:05:33,675] {dagbag.py:487} INFO - Filling up the DagBag from /home/mlops/anaconda3/lib/python3.7/site-packages/airflow/example_dags/example_complex.py
[2022-02-24 21:05:33,716] {scheduler_job.py:643} INFO - DAG(s) dict_keys(['example_complex']) retrieved from /home/mlops/anaconda3/lib/python3.7/site-packages/airflow/example_dags/example_complex.py
[2022-02-24 21:05:33,749] {logging_mixin.py:104} INFO - [2022-02-24 21:05:33,748] {dag.py:1832} INFO - Sync 1 DAGs
[2022-02-24 21:05:33,773] {logging_mixin.py:104} INFO - [2022-02-24 21:05:33,773] {dag.py:2305} INFO - Setting next_dagrun for example_complex to None
[2022-02-24 21:05:33,796] {scheduler_job.py:190} INFO - Processing /home/mlops/anaconda3/lib/python3.7/site-packages/airflow/example_dags/example_complex.py took 0.127 seconds
[2022-02-24 21:06:29,264] {scheduler_job.py:182} INFO - Started process (PID=10679) to work on /home/mlops/anaconda3/lib/python3.7/site-packages/airflow/example_dags/example_complex.py
[2022-02-24 21:06:29,269] {scheduler_job.py:633} INFO - Processing file /home/mlops/anaconda3/lib/python3.7/site-packages/airflow/example_dags/example_complex.py for tasks to queue
[2022-02-24 21:06:29,270] {logging_mixin.py:104} INFO - [2022-02-24 21:06:29,270] {dagbag.py:487} INFO - Filling up the DagBag from /home/mlops/anaconda3/lib/python3.7/site-packages/airflow/example_dags/example_complex.py
[2022-02-24 21:06:29,318] {scheduler_job.py:643} INFO - DAG(s) dict_keys(['example_complex']) retrieved from /home/mlops/anaconda3/lib/python3.7/site-packages/airflow/example_dags/example_complex.py
[2022-02-24 21:06:29,391] {logging_mixin.py:104} INFO - [2022-02-24 21:06:29,391] {dag.py:1832} INFO - Sync 1 DAGs
[2022-02-24 21:06:29,426] {logging_mixin.py:104} INFO - [2022-02-24 21:06:29,426] {dag.py:2305} INFO - Setting next_dagrun for example_complex to None
[2022-02-24 21:06:29,476] {scheduler_job.py:190} INFO - Processing /home/mlops/anaconda3/lib/python3.7/site-packages/airflow/example_dags/example_complex.py took 0.220 seconds
[2022-02-24 21:07:27,321] {scheduler_job.py:182} INFO - Started process (PID=10731) to work on /home/mlops/anaconda3/lib/python3.7/site-packages/airflow/example_dags/example_complex.py
[2022-02-24 21:07:27,325] {scheduler_job.py:633} INFO - Processing file /home/mlops/anaconda3/lib/python3.7/site-packages/airflow/example_dags/example_complex.py for tasks to queue
[2022-02-24 21:07:27,327] {logging_mixin.py:104} INFO - [2022-02-24 21:07:27,326] {dagbag.py:487} INFO - Filling up the DagBag from /home/mlops/anaconda3/lib/python3.7/site-packages/airflow/example_dags/example_complex.py
[2022-02-24 21:07:27,375] {scheduler_job.py:643} INFO - DAG(s) dict_keys(['example_complex']) retrieved from /home/mlops/anaconda3/lib/python3.7/site-packages/airflow/example_dags/example_complex.py
[2022-02-24 21:07:27,485] {logging_mixin.py:104} INFO - [2022-02-24 21:07:27,485] {dag.py:1832} INFO - Sync 1 DAGs
[2022-02-24 21:07:27,553] {logging_mixin.py:104} INFO - [2022-02-24 21:07:27,553] {dag.py:2305} INFO - Setting next_dagrun for example_complex to None
[2022-02-24 21:07:27,599] {scheduler_job.py:190} INFO - Processing /home/mlops/anaconda3/lib/python3.7/site-packages/airflow/example_dags/example_complex.py took 0.289 seconds
[2022-02-24 21:08:21,656] {scheduler_job.py:182} INFO - Started process (PID=10776) to work on /home/mlops/anaconda3/lib/python3.7/site-packages/airflow/example_dags/example_complex.py
[2022-02-24 21:08:21,659] {scheduler_job.py:633} INFO - Processing file /home/mlops/anaconda3/lib/python3.7/site-packages/airflow/example_dags/example_complex.py for tasks to queue
[2022-02-24 21:08:21,660] {logging_mixin.py:104} INFO - [2022-02-24 21:08:21,660] {dagbag.py:487} INFO - Filling up the DagBag from /home/mlops/anaconda3/lib/python3.7/site-packages/airflow/example_dags/example_complex.py
[2022-02-24 21:08:21,701] {scheduler_job.py:643} INFO - DAG(s) dict_keys(['example_complex']) retrieved from /home/mlops/anaconda3/lib/python3.7/site-packages/airflow/example_dags/example_complex.py
[2022-02-24 21:08:21,733] {logging_mixin.py:104} INFO - [2022-02-24 21:08:21,733] {dag.py:1832} INFO - Sync 1 DAGs
[2022-02-24 21:08:21,749] {logging_mixin.py:104} INFO - [2022-02-24 21:08:21,749] {dag.py:2305} INFO - Setting next_dagrun for example_complex to None
[2022-02-24 21:08:21,768] {scheduler_job.py:190} INFO - Processing /home/mlops/anaconda3/lib/python3.7/site-packages/airflow/example_dags/example_complex.py took 0.119 seconds
[2022-02-24 21:09:14,722] {scheduler_job.py:182} INFO - Started process (PID=10815) to work on /home/mlops/anaconda3/lib/python3.7/site-packages/airflow/example_dags/example_complex.py
[2022-02-24 21:09:14,724] {scheduler_job.py:633} INFO - Processing file /home/mlops/anaconda3/lib/python3.7/site-packages/airflow/example_dags/example_complex.py for tasks to queue
[2022-02-24 21:09:14,725] {logging_mixin.py:104} INFO - [2022-02-24 21:09:14,725] {dagbag.py:487} INFO - Filling up the DagBag from /home/mlops/anaconda3/lib/python3.7/site-packages/airflow/example_dags/example_complex.py
[2022-02-24 21:09:14,775] {scheduler_job.py:643} INFO - DAG(s) dict_keys(['example_complex']) retrieved from /home/mlops/anaconda3/lib/python3.7/site-packages/airflow/example_dags/example_complex.py
[2022-02-24 21:09:14,824] {logging_mixin.py:104} INFO - [2022-02-24 21:09:14,823] {dag.py:1832} INFO - Sync 1 DAGs
[2022-02-24 21:09:14,841] {logging_mixin.py:104} INFO - [2022-02-24 21:09:14,841] {dag.py:2305} INFO - Setting next_dagrun for example_complex to None
[2022-02-24 21:09:14,856] {scheduler_job.py:190} INFO - Processing /home/mlops/anaconda3/lib/python3.7/site-packages/airflow/example_dags/example_complex.py took 0.142 seconds
[2022-02-24 21:10:26,154] {scheduler_job.py:182} INFO - Started process (PID=10884) to work on /home/mlops/anaconda3/lib/python3.7/site-packages/airflow/example_dags/example_complex.py
[2022-02-24 21:10:26,156] {scheduler_job.py:633} INFO - Processing file /home/mlops/anaconda3/lib/python3.7/site-packages/airflow/example_dags/example_complex.py for tasks to queue
[2022-02-24 21:10:26,157] {logging_mixin.py:104} INFO - [2022-02-24 21:10:26,157] {dagbag.py:487} INFO - Filling up the DagBag from /home/mlops/anaconda3/lib/python3.7/site-packages/airflow/example_dags/example_complex.py
[2022-02-24 21:10:26,186] {scheduler_job.py:643} INFO - DAG(s) dict_keys(['example_complex']) retrieved from /home/mlops/anaconda3/lib/python3.7/site-packages/airflow/example_dags/example_complex.py
[2022-02-24 21:10:26,215] {logging_mixin.py:104} INFO - [2022-02-24 21:10:26,215] {dag.py:1832} INFO - Sync 1 DAGs
[2022-02-24 21:10:26,234] {logging_mixin.py:104} INFO - [2022-02-24 21:10:26,234] {dag.py:2305} INFO - Setting next_dagrun for example_complex to None
[2022-02-24 21:10:26,249] {scheduler_job.py:190} INFO - Processing /home/mlops/anaconda3/lib/python3.7/site-packages/airflow/example_dags/example_complex.py took 0.101 seconds
[2022-02-24 21:11:12,332] {scheduler_job.py:182} INFO - Started process (PID=10930) to work on /home/mlops/anaconda3/lib/python3.7/site-packages/airflow/example_dags/example_complex.py
[2022-02-24 21:11:12,338] {scheduler_job.py:633} INFO - Processing file /home/mlops/anaconda3/lib/python3.7/site-packages/airflow/example_dags/example_complex.py for tasks to queue
[2022-02-24 21:11:12,342] {logging_mixin.py:104} INFO - [2022-02-24 21:11:12,341] {dagbag.py:487} INFO - Filling up the DagBag from /home/mlops/anaconda3/lib/python3.7/site-packages/airflow/example_dags/example_complex.py
[2022-02-24 21:11:12,379] {scheduler_job.py:643} INFO - DAG(s) dict_keys(['example_complex']) retrieved from /home/mlops/anaconda3/lib/python3.7/site-packages/airflow/example_dags/example_complex.py
[2022-02-24 21:11:12,408] {logging_mixin.py:104} INFO - [2022-02-24 21:11:12,408] {dag.py:1832} INFO - Sync 1 DAGs
[2022-02-24 21:11:12,425] {logging_mixin.py:104} INFO - [2022-02-24 21:11:12,425] {dag.py:2305} INFO - Setting next_dagrun for example_complex to None
[2022-02-24 21:11:12,441] {scheduler_job.py:190} INFO - Processing /home/mlops/anaconda3/lib/python3.7/site-packages/airflow/example_dags/example_complex.py took 0.119 seconds
[2022-02-24 21:11:58,806] {scheduler_job.py:182} INFO - Started process (PID=10974) to work on /home/mlops/anaconda3/lib/python3.7/site-packages/airflow/example_dags/example_complex.py
[2022-02-24 21:11:58,809] {scheduler_job.py:633} INFO - Processing file /home/mlops/anaconda3/lib/python3.7/site-packages/airflow/example_dags/example_complex.py for tasks to queue
[2022-02-24 21:11:58,810] {logging_mixin.py:104} INFO - [2022-02-24 21:11:58,810] {dagbag.py:487} INFO - Filling up the DagBag from /home/mlops/anaconda3/lib/python3.7/site-packages/airflow/example_dags/example_complex.py
[2022-02-24 21:11:58,839] {scheduler_job.py:643} INFO - DAG(s) dict_keys(['example_complex']) retrieved from /home/mlops/anaconda3/lib/python3.7/site-packages/airflow/example_dags/example_complex.py
[2022-02-24 21:11:58,874] {logging_mixin.py:104} INFO - [2022-02-24 21:11:58,874] {dag.py:1832} INFO - Sync 1 DAGs
[2022-02-24 21:11:58,901] {logging_mixin.py:104} INFO - [2022-02-24 21:11:58,901] {dag.py:2305} INFO - Setting next_dagrun for example_complex to None
[2022-02-24 21:11:58,922] {scheduler_job.py:190} INFO - Processing /home/mlops/anaconda3/lib/python3.7/site-packages/airflow/example_dags/example_complex.py took 0.120 seconds
[2022-02-24 21:12:53,683] {scheduler_job.py:182} INFO - Started process (PID=11015) to work on /home/mlops/anaconda3/lib/python3.7/site-packages/airflow/example_dags/example_complex.py
[2022-02-24 21:12:53,685] {scheduler_job.py:633} INFO - Processing file /home/mlops/anaconda3/lib/python3.7/site-packages/airflow/example_dags/example_complex.py for tasks to queue
[2022-02-24 21:12:53,686] {logging_mixin.py:104} INFO - [2022-02-24 21:12:53,686] {dagbag.py:487} INFO - Filling up the DagBag from /home/mlops/anaconda3/lib/python3.7/site-packages/airflow/example_dags/example_complex.py
[2022-02-24 21:12:53,729] {scheduler_job.py:643} INFO - DAG(s) dict_keys(['example_complex']) retrieved from /home/mlops/anaconda3/lib/python3.7/site-packages/airflow/example_dags/example_complex.py
[2022-02-24 21:12:53,783] {logging_mixin.py:104} INFO - [2022-02-24 21:12:53,782] {dag.py:1832} INFO - Sync 1 DAGs
[2022-02-24 21:12:53,810] {logging_mixin.py:104} INFO - [2022-02-24 21:12:53,810] {dag.py:2305} INFO - Setting next_dagrun for example_complex to None
[2022-02-24 21:12:53,833] {scheduler_job.py:190} INFO - Processing /home/mlops/anaconda3/lib/python3.7/site-packages/airflow/example_dags/example_complex.py took 0.154 seconds
[2022-02-24 21:13:53,796] {scheduler_job.py:182} INFO - Started process (PID=11069) to work on /home/mlops/anaconda3/lib/python3.7/site-packages/airflow/example_dags/example_complex.py
[2022-02-24 21:13:53,799] {scheduler_job.py:633} INFO - Processing file /home/mlops/anaconda3/lib/python3.7/site-packages/airflow/example_dags/example_complex.py for tasks to queue
[2022-02-24 21:13:53,801] {logging_mixin.py:104} INFO - [2022-02-24 21:13:53,800] {dagbag.py:487} INFO - Filling up the DagBag from /home/mlops/anaconda3/lib/python3.7/site-packages/airflow/example_dags/example_complex.py
[2022-02-24 21:13:53,842] {scheduler_job.py:643} INFO - DAG(s) dict_keys(['example_complex']) retrieved from /home/mlops/anaconda3/lib/python3.7/site-packages/airflow/example_dags/example_complex.py
[2022-02-24 21:13:53,897] {logging_mixin.py:104} INFO - [2022-02-24 21:13:53,897] {dag.py:1832} INFO - Sync 1 DAGs
[2022-02-24 21:13:53,927] {logging_mixin.py:104} INFO - [2022-02-24 21:13:53,926] {dag.py:2305} INFO - Setting next_dagrun for example_complex to None
[2022-02-24 21:13:53,964] {scheduler_job.py:190} INFO - Processing /home/mlops/anaconda3/lib/python3.7/site-packages/airflow/example_dags/example_complex.py took 0.172 seconds
[2022-02-24 21:14:47,012] {scheduler_job.py:182} INFO - Started process (PID=11105) to work on /home/mlops/anaconda3/lib/python3.7/site-packages/airflow/example_dags/example_complex.py
[2022-02-24 21:14:47,014] {scheduler_job.py:633} INFO - Processing file /home/mlops/anaconda3/lib/python3.7/site-packages/airflow/example_dags/example_complex.py for tasks to queue
[2022-02-24 21:14:47,015] {logging_mixin.py:104} INFO - [2022-02-24 21:14:47,015] {dagbag.py:487} INFO - Filling up the DagBag from /home/mlops/anaconda3/lib/python3.7/site-packages/airflow/example_dags/example_complex.py
[2022-02-24 21:14:47,061] {scheduler_job.py:643} INFO - DAG(s) dict_keys(['example_complex']) retrieved from /home/mlops/anaconda3/lib/python3.7/site-packages/airflow/example_dags/example_complex.py
[2022-02-24 21:14:47,100] {logging_mixin.py:104} INFO - [2022-02-24 21:14:47,100] {dag.py:1832} INFO - Sync 1 DAGs
[2022-02-24 21:14:47,122] {logging_mixin.py:104} INFO - [2022-02-24 21:14:47,122] {dag.py:2305} INFO - Setting next_dagrun for example_complex to None
[2022-02-24 21:14:47,146] {scheduler_job.py:190} INFO - Processing /home/mlops/anaconda3/lib/python3.7/site-packages/airflow/example_dags/example_complex.py took 0.140 seconds
[2022-02-24 21:15:41,600] {scheduler_job.py:182} INFO - Started process (PID=11150) to work on /home/mlops/anaconda3/lib/python3.7/site-packages/airflow/example_dags/example_complex.py
[2022-02-24 21:15:41,602] {scheduler_job.py:633} INFO - Processing file /home/mlops/anaconda3/lib/python3.7/site-packages/airflow/example_dags/example_complex.py for tasks to queue
[2022-02-24 21:15:41,603] {logging_mixin.py:104} INFO - [2022-02-24 21:15:41,603] {dagbag.py:487} INFO - Filling up the DagBag from /home/mlops/anaconda3/lib/python3.7/site-packages/airflow/example_dags/example_complex.py
[2022-02-24 21:15:41,633] {scheduler_job.py:643} INFO - DAG(s) dict_keys(['example_complex']) retrieved from /home/mlops/anaconda3/lib/python3.7/site-packages/airflow/example_dags/example_complex.py
[2022-02-24 21:15:41,673] {logging_mixin.py:104} INFO - [2022-02-24 21:15:41,673] {dag.py:1832} INFO - Sync 1 DAGs
[2022-02-24 21:15:41,689] {logging_mixin.py:104} INFO - [2022-02-24 21:15:41,689] {dag.py:2305} INFO - Setting next_dagrun for example_complex to None
[2022-02-24 21:15:41,710] {scheduler_job.py:190} INFO - Processing /home/mlops/anaconda3/lib/python3.7/site-packages/airflow/example_dags/example_complex.py took 0.115 seconds
[2022-02-24 21:16:40,804] {scheduler_job.py:182} INFO - Started process (PID=11196) to work on /home/mlops/anaconda3/lib/python3.7/site-packages/airflow/example_dags/example_complex.py
[2022-02-24 21:16:40,809] {scheduler_job.py:633} INFO - Processing file /home/mlops/anaconda3/lib/python3.7/site-packages/airflow/example_dags/example_complex.py for tasks to queue
[2022-02-24 21:16:40,811] {logging_mixin.py:104} INFO - [2022-02-24 21:16:40,811] {dagbag.py:487} INFO - Filling up the DagBag from /home/mlops/anaconda3/lib/python3.7/site-packages/airflow/example_dags/example_complex.py
[2022-02-24 21:16:40,842] {scheduler_job.py:643} INFO - DAG(s) dict_keys(['example_complex']) retrieved from /home/mlops/anaconda3/lib/python3.7/site-packages/airflow/example_dags/example_complex.py
[2022-02-24 21:16:40,878] {logging_mixin.py:104} INFO - [2022-02-24 21:16:40,878] {dag.py:1832} INFO - Sync 1 DAGs
[2022-02-24 21:16:40,902] {logging_mixin.py:104} INFO - [2022-02-24 21:16:40,902] {dag.py:2305} INFO - Setting next_dagrun for example_complex to None
[2022-02-24 21:16:40,927] {scheduler_job.py:190} INFO - Processing /home/mlops/anaconda3/lib/python3.7/site-packages/airflow/example_dags/example_complex.py took 0.127 seconds
[2022-02-24 21:17:47,766] {scheduler_job.py:182} INFO - Started process (PID=11241) to work on /home/mlops/anaconda3/lib/python3.7/site-packages/airflow/example_dags/example_complex.py
[2022-02-24 21:17:47,768] {scheduler_job.py:633} INFO - Processing file /home/mlops/anaconda3/lib/python3.7/site-packages/airflow/example_dags/example_complex.py for tasks to queue
[2022-02-24 21:17:47,770] {logging_mixin.py:104} INFO - [2022-02-24 21:17:47,770] {dagbag.py:487} INFO - Filling up the DagBag from /home/mlops/anaconda3/lib/python3.7/site-packages/airflow/example_dags/example_complex.py
[2022-02-24 21:17:47,834] {scheduler_job.py:643} INFO - DAG(s) dict_keys(['example_complex']) retrieved from /home/mlops/anaconda3/lib/python3.7/site-packages/airflow/example_dags/example_complex.py
[2022-02-24 21:17:47,911] {logging_mixin.py:104} INFO - [2022-02-24 21:17:47,908] {dag.py:1832} INFO - Sync 1 DAGs
[2022-02-24 21:17:47,946] {logging_mixin.py:104} INFO - [2022-02-24 21:17:47,946] {dag.py:2305} INFO - Setting next_dagrun for example_complex to None
[2022-02-24 21:17:47,971] {scheduler_job.py:190} INFO - Processing /home/mlops/anaconda3/lib/python3.7/site-packages/airflow/example_dags/example_complex.py took 0.214 seconds
[2022-02-24 21:18:58,784] {scheduler_job.py:182} INFO - Started process (PID=11290) to work on /home/mlops/anaconda3/lib/python3.7/site-packages/airflow/example_dags/example_complex.py
[2022-02-24 21:18:58,786] {scheduler_job.py:633} INFO - Processing file /home/mlops/anaconda3/lib/python3.7/site-packages/airflow/example_dags/example_complex.py for tasks to queue
[2022-02-24 21:18:58,787] {logging_mixin.py:104} INFO - [2022-02-24 21:18:58,787] {dagbag.py:487} INFO - Filling up the DagBag from /home/mlops/anaconda3/lib/python3.7/site-packages/airflow/example_dags/example_complex.py
[2022-02-24 21:18:58,832] {scheduler_job.py:643} INFO - DAG(s) dict_keys(['example_complex']) retrieved from /home/mlops/anaconda3/lib/python3.7/site-packages/airflow/example_dags/example_complex.py
[2022-02-24 21:18:58,872] {logging_mixin.py:104} INFO - [2022-02-24 21:18:58,872] {dag.py:1832} INFO - Sync 1 DAGs
[2022-02-24 21:18:58,894] {logging_mixin.py:104} INFO - [2022-02-24 21:18:58,894] {dag.py:2305} INFO - Setting next_dagrun for example_complex to None
[2022-02-24 21:18:58,920] {scheduler_job.py:190} INFO - Processing /home/mlops/anaconda3/lib/python3.7/site-packages/airflow/example_dags/example_complex.py took 0.147 seconds
[2022-02-24 21:20:32,146] {scheduler_job.py:182} INFO - Started process (PID=11364) to work on /home/mlops/anaconda3/lib/python3.7/site-packages/airflow/example_dags/example_complex.py
[2022-02-24 21:20:32,150] {scheduler_job.py:633} INFO - Processing file /home/mlops/anaconda3/lib/python3.7/site-packages/airflow/example_dags/example_complex.py for tasks to queue
[2022-02-24 21:20:32,153] {logging_mixin.py:104} INFO - [2022-02-24 21:20:32,152] {dagbag.py:487} INFO - Filling up the DagBag from /home/mlops/anaconda3/lib/python3.7/site-packages/airflow/example_dags/example_complex.py
[2022-02-24 21:20:32,196] {scheduler_job.py:643} INFO - DAG(s) dict_keys(['example_complex']) retrieved from /home/mlops/anaconda3/lib/python3.7/site-packages/airflow/example_dags/example_complex.py
[2022-02-24 21:20:32,230] {logging_mixin.py:104} INFO - [2022-02-24 21:20:32,230] {dag.py:1832} INFO - Sync 1 DAGs
[2022-02-24 21:20:32,248] {logging_mixin.py:104} INFO - [2022-02-24 21:20:32,248] {dag.py:2305} INFO - Setting next_dagrun for example_complex to None
[2022-02-24 21:20:32,265] {scheduler_job.py:190} INFO - Processing /home/mlops/anaconda3/lib/python3.7/site-packages/airflow/example_dags/example_complex.py took 0.128 seconds
[2022-02-24 21:21:35,292] {scheduler_job.py:182} INFO - Started process (PID=11471) to work on /home/mlops/anaconda3/lib/python3.7/site-packages/airflow/example_dags/example_complex.py
[2022-02-24 21:21:35,297] {scheduler_job.py:633} INFO - Processing file /home/mlops/anaconda3/lib/python3.7/site-packages/airflow/example_dags/example_complex.py for tasks to queue
[2022-02-24 21:21:35,300] {logging_mixin.py:104} INFO - [2022-02-24 21:21:35,300] {dagbag.py:487} INFO - Filling up the DagBag from /home/mlops/anaconda3/lib/python3.7/site-packages/airflow/example_dags/example_complex.py
[2022-02-24 21:21:35,341] {scheduler_job.py:643} INFO - DAG(s) dict_keys(['example_complex']) retrieved from /home/mlops/anaconda3/lib/python3.7/site-packages/airflow/example_dags/example_complex.py
[2022-02-24 21:21:35,374] {logging_mixin.py:104} INFO - [2022-02-24 21:21:35,373] {dag.py:1832} INFO - Sync 1 DAGs
[2022-02-24 21:21:35,391] {logging_mixin.py:104} INFO - [2022-02-24 21:21:35,391] {dag.py:2305} INFO - Setting next_dagrun for example_complex to None
[2022-02-24 21:21:35,422] {scheduler_job.py:190} INFO - Processing /home/mlops/anaconda3/lib/python3.7/site-packages/airflow/example_dags/example_complex.py took 0.136 seconds
[2022-02-24 21:22:25,614] {scheduler_job.py:182} INFO - Started process (PID=11552) to work on /home/mlops/anaconda3/lib/python3.7/site-packages/airflow/example_dags/example_complex.py
[2022-02-24 21:22:25,616] {scheduler_job.py:633} INFO - Processing file /home/mlops/anaconda3/lib/python3.7/site-packages/airflow/example_dags/example_complex.py for tasks to queue
[2022-02-24 21:22:25,617] {logging_mixin.py:104} INFO - [2022-02-24 21:22:25,617] {dagbag.py:487} INFO - Filling up the DagBag from /home/mlops/anaconda3/lib/python3.7/site-packages/airflow/example_dags/example_complex.py
[2022-02-24 21:22:25,659] {scheduler_job.py:643} INFO - DAG(s) dict_keys(['example_complex']) retrieved from /home/mlops/anaconda3/lib/python3.7/site-packages/airflow/example_dags/example_complex.py
[2022-02-24 21:22:25,726] {logging_mixin.py:104} INFO - [2022-02-24 21:22:25,726] {dag.py:1832} INFO - Sync 1 DAGs
[2022-02-24 21:22:25,792] {logging_mixin.py:104} INFO - [2022-02-24 21:22:25,792] {dag.py:2305} INFO - Setting next_dagrun for example_complex to None
[2022-02-24 21:22:25,819] {scheduler_job.py:190} INFO - Processing /home/mlops/anaconda3/lib/python3.7/site-packages/airflow/example_dags/example_complex.py took 0.210 seconds
[2022-02-24 21:23:21,663] {scheduler_job.py:182} INFO - Started process (PID=11631) to work on /home/mlops/anaconda3/lib/python3.7/site-packages/airflow/example_dags/example_complex.py
[2022-02-24 21:23:21,665] {scheduler_job.py:633} INFO - Processing file /home/mlops/anaconda3/lib/python3.7/site-packages/airflow/example_dags/example_complex.py for tasks to queue
[2022-02-24 21:23:21,666] {logging_mixin.py:104} INFO - [2022-02-24 21:23:21,666] {dagbag.py:487} INFO - Filling up the DagBag from /home/mlops/anaconda3/lib/python3.7/site-packages/airflow/example_dags/example_complex.py
[2022-02-24 21:23:21,701] {scheduler_job.py:643} INFO - DAG(s) dict_keys(['example_complex']) retrieved from /home/mlops/anaconda3/lib/python3.7/site-packages/airflow/example_dags/example_complex.py
[2022-02-24 21:23:21,731] {logging_mixin.py:104} INFO - [2022-02-24 21:23:21,731] {dag.py:1832} INFO - Sync 1 DAGs
[2022-02-24 21:23:21,748] {logging_mixin.py:104} INFO - [2022-02-24 21:23:21,748] {dag.py:2305} INFO - Setting next_dagrun for example_complex to None
[2022-02-24 21:23:21,767] {scheduler_job.py:190} INFO - Processing /home/mlops/anaconda3/lib/python3.7/site-packages/airflow/example_dags/example_complex.py took 0.109 seconds
[2022-02-24 21:24:12,168] {scheduler_job.py:182} INFO - Started process (PID=11702) to work on /home/mlops/anaconda3/lib/python3.7/site-packages/airflow/example_dags/example_complex.py
[2022-02-24 21:24:12,169] {scheduler_job.py:633} INFO - Processing file /home/mlops/anaconda3/lib/python3.7/site-packages/airflow/example_dags/example_complex.py for tasks to queue
[2022-02-24 21:24:12,170] {logging_mixin.py:104} INFO - [2022-02-24 21:24:12,170] {dagbag.py:487} INFO - Filling up the DagBag from /home/mlops/anaconda3/lib/python3.7/site-packages/airflow/example_dags/example_complex.py
[2022-02-24 21:24:12,223] {scheduler_job.py:643} INFO - DAG(s) dict_keys(['example_complex']) retrieved from /home/mlops/anaconda3/lib/python3.7/site-packages/airflow/example_dags/example_complex.py
[2022-02-24 21:24:12,316] {logging_mixin.py:104} INFO - [2022-02-24 21:24:12,314] {dag.py:1832} INFO - Sync 1 DAGs
[2022-02-24 21:24:12,339] {logging_mixin.py:104} INFO - [2022-02-24 21:24:12,339] {dag.py:2305} INFO - Setting next_dagrun for example_complex to None
[2022-02-24 21:24:12,375] {scheduler_job.py:190} INFO - Processing /home/mlops/anaconda3/lib/python3.7/site-packages/airflow/example_dags/example_complex.py took 0.214 seconds
[2022-02-24 21:24:58,696] {scheduler_job.py:182} INFO - Started process (PID=11740) to work on /home/mlops/anaconda3/lib/python3.7/site-packages/airflow/example_dags/example_complex.py
[2022-02-24 21:24:58,701] {scheduler_job.py:633} INFO - Processing file /home/mlops/anaconda3/lib/python3.7/site-packages/airflow/example_dags/example_complex.py for tasks to queue
[2022-02-24 21:24:58,703] {logging_mixin.py:104} INFO - [2022-02-24 21:24:58,703] {dagbag.py:487} INFO - Filling up the DagBag from /home/mlops/anaconda3/lib/python3.7/site-packages/airflow/example_dags/example_complex.py
[2022-02-24 21:24:58,740] {scheduler_job.py:643} INFO - DAG(s) dict_keys(['example_complex']) retrieved from /home/mlops/anaconda3/lib/python3.7/site-packages/airflow/example_dags/example_complex.py
[2022-02-24 21:24:58,766] {logging_mixin.py:104} INFO - [2022-02-24 21:24:58,766] {dag.py:1832} INFO - Sync 1 DAGs
[2022-02-24 21:24:58,780] {logging_mixin.py:104} INFO - [2022-02-24 21:24:58,780] {dag.py:2305} INFO - Setting next_dagrun for example_complex to None
[2022-02-24 21:24:58,793] {scheduler_job.py:190} INFO - Processing /home/mlops/anaconda3/lib/python3.7/site-packages/airflow/example_dags/example_complex.py took 0.109 seconds
[2022-02-24 21:25:48,127] {scheduler_job.py:182} INFO - Started process (PID=11784) to work on /home/mlops/anaconda3/lib/python3.7/site-packages/airflow/example_dags/example_complex.py
[2022-02-24 21:25:48,129] {scheduler_job.py:633} INFO - Processing file /home/mlops/anaconda3/lib/python3.7/site-packages/airflow/example_dags/example_complex.py for tasks to queue
[2022-02-24 21:25:48,130] {logging_mixin.py:104} INFO - [2022-02-24 21:25:48,130] {dagbag.py:487} INFO - Filling up the DagBag from /home/mlops/anaconda3/lib/python3.7/site-packages/airflow/example_dags/example_complex.py
[2022-02-24 21:25:48,162] {scheduler_job.py:643} INFO - DAG(s) dict_keys(['example_complex']) retrieved from /home/mlops/anaconda3/lib/python3.7/site-packages/airflow/example_dags/example_complex.py
[2022-02-24 21:25:48,189] {logging_mixin.py:104} INFO - [2022-02-24 21:25:48,188] {dag.py:1832} INFO - Sync 1 DAGs
[2022-02-24 21:25:48,206] {logging_mixin.py:104} INFO - [2022-02-24 21:25:48,206] {dag.py:2305} INFO - Setting next_dagrun for example_complex to None
[2022-02-24 21:25:48,220] {scheduler_job.py:190} INFO - Processing /home/mlops/anaconda3/lib/python3.7/site-packages/airflow/example_dags/example_complex.py took 0.099 seconds
[2022-02-24 21:26:32,388] {scheduler_job.py:182} INFO - Started process (PID=11821) to work on /home/mlops/anaconda3/lib/python3.7/site-packages/airflow/example_dags/example_complex.py
[2022-02-24 21:26:32,390] {scheduler_job.py:633} INFO - Processing file /home/mlops/anaconda3/lib/python3.7/site-packages/airflow/example_dags/example_complex.py for tasks to queue
[2022-02-24 21:26:32,391] {logging_mixin.py:104} INFO - [2022-02-24 21:26:32,391] {dagbag.py:487} INFO - Filling up the DagBag from /home/mlops/anaconda3/lib/python3.7/site-packages/airflow/example_dags/example_complex.py
[2022-02-24 21:26:32,418] {scheduler_job.py:643} INFO - DAG(s) dict_keys(['example_complex']) retrieved from /home/mlops/anaconda3/lib/python3.7/site-packages/airflow/example_dags/example_complex.py
[2022-02-24 21:26:32,451] {logging_mixin.py:104} INFO - [2022-02-24 21:26:32,450] {dag.py:1832} INFO - Sync 1 DAGs
[2022-02-24 21:26:32,466] {logging_mixin.py:104} INFO - [2022-02-24 21:26:32,466] {dag.py:2305} INFO - Setting next_dagrun for example_complex to None
[2022-02-24 21:26:32,480] {scheduler_job.py:190} INFO - Processing /home/mlops/anaconda3/lib/python3.7/site-packages/airflow/example_dags/example_complex.py took 0.099 seconds
[2022-02-24 21:27:20,064] {scheduler_job.py:182} INFO - Started process (PID=11859) to work on /home/mlops/anaconda3/lib/python3.7/site-packages/airflow/example_dags/example_complex.py
[2022-02-24 21:27:20,066] {scheduler_job.py:633} INFO - Processing file /home/mlops/anaconda3/lib/python3.7/site-packages/airflow/example_dags/example_complex.py for tasks to queue
[2022-02-24 21:27:20,067] {logging_mixin.py:104} INFO - [2022-02-24 21:27:20,066] {dagbag.py:487} INFO - Filling up the DagBag from /home/mlops/anaconda3/lib/python3.7/site-packages/airflow/example_dags/example_complex.py
[2022-02-24 21:27:20,123] {scheduler_job.py:643} INFO - DAG(s) dict_keys(['example_complex']) retrieved from /home/mlops/anaconda3/lib/python3.7/site-packages/airflow/example_dags/example_complex.py
[2022-02-24 21:27:20,192] {logging_mixin.py:104} INFO - [2022-02-24 21:27:20,191] {dag.py:1832} INFO - Sync 1 DAGs
[2022-02-24 21:27:20,222] {logging_mixin.py:104} INFO - [2022-02-24 21:27:20,222] {dag.py:2305} INFO - Setting next_dagrun for example_complex to None
[2022-02-24 21:27:20,258] {scheduler_job.py:190} INFO - Processing /home/mlops/anaconda3/lib/python3.7/site-packages/airflow/example_dags/example_complex.py took 0.200 seconds
[2022-02-24 21:28:23,384] {scheduler_job.py:182} INFO - Started process (PID=11901) to work on /home/mlops/anaconda3/lib/python3.7/site-packages/airflow/example_dags/example_complex.py
[2022-02-24 21:28:23,385] {scheduler_job.py:633} INFO - Processing file /home/mlops/anaconda3/lib/python3.7/site-packages/airflow/example_dags/example_complex.py for tasks to queue
[2022-02-24 21:28:23,386] {logging_mixin.py:104} INFO - [2022-02-24 21:28:23,386] {dagbag.py:487} INFO - Filling up the DagBag from /home/mlops/anaconda3/lib/python3.7/site-packages/airflow/example_dags/example_complex.py
[2022-02-24 21:28:23,412] {scheduler_job.py:643} INFO - DAG(s) dict_keys(['example_complex']) retrieved from /home/mlops/anaconda3/lib/python3.7/site-packages/airflow/example_dags/example_complex.py
[2022-02-24 21:28:23,438] {logging_mixin.py:104} INFO - [2022-02-24 21:28:23,438] {dag.py:1832} INFO - Sync 1 DAGs
[2022-02-24 21:28:23,453] {logging_mixin.py:104} INFO - [2022-02-24 21:28:23,452] {dag.py:2305} INFO - Setting next_dagrun for example_complex to None
[2022-02-24 21:28:23,467] {scheduler_job.py:190} INFO - Processing /home/mlops/anaconda3/lib/python3.7/site-packages/airflow/example_dags/example_complex.py took 0.088 seconds
[2022-02-24 21:29:10,794] {scheduler_job.py:182} INFO - Started process (PID=11937) to work on /home/mlops/anaconda3/lib/python3.7/site-packages/airflow/example_dags/example_complex.py
[2022-02-24 21:29:10,796] {scheduler_job.py:633} INFO - Processing file /home/mlops/anaconda3/lib/python3.7/site-packages/airflow/example_dags/example_complex.py for tasks to queue
[2022-02-24 21:29:10,797] {logging_mixin.py:104} INFO - [2022-02-24 21:29:10,796] {dagbag.py:487} INFO - Filling up the DagBag from /home/mlops/anaconda3/lib/python3.7/site-packages/airflow/example_dags/example_complex.py
[2022-02-24 21:29:10,820] {scheduler_job.py:643} INFO - DAG(s) dict_keys(['example_complex']) retrieved from /home/mlops/anaconda3/lib/python3.7/site-packages/airflow/example_dags/example_complex.py
[2022-02-24 21:29:10,845] {logging_mixin.py:104} INFO - [2022-02-24 21:29:10,845] {dag.py:1832} INFO - Sync 1 DAGs
[2022-02-24 21:29:10,859] {logging_mixin.py:104} INFO - [2022-02-24 21:29:10,858] {dag.py:2305} INFO - Setting next_dagrun for example_complex to None
[2022-02-24 21:29:10,872] {scheduler_job.py:190} INFO - Processing /home/mlops/anaconda3/lib/python3.7/site-packages/airflow/example_dags/example_complex.py took 0.081 seconds
[2022-02-24 21:30:12,741] {scheduler_job.py:182} INFO - Started process (PID=12004) to work on /home/mlops/anaconda3/lib/python3.7/site-packages/airflow/example_dags/example_complex.py
[2022-02-24 21:30:12,744] {scheduler_job.py:633} INFO - Processing file /home/mlops/anaconda3/lib/python3.7/site-packages/airflow/example_dags/example_complex.py for tasks to queue
[2022-02-24 21:30:12,747] {logging_mixin.py:104} INFO - [2022-02-24 21:30:12,747] {dagbag.py:487} INFO - Filling up the DagBag from /home/mlops/anaconda3/lib/python3.7/site-packages/airflow/example_dags/example_complex.py
[2022-02-24 21:30:12,782] {scheduler_job.py:643} INFO - DAG(s) dict_keys(['example_complex']) retrieved from /home/mlops/anaconda3/lib/python3.7/site-packages/airflow/example_dags/example_complex.py
[2022-02-24 21:30:12,809] {logging_mixin.py:104} INFO - [2022-02-24 21:30:12,809] {dag.py:1832} INFO - Sync 1 DAGs
[2022-02-24 21:30:12,830] {logging_mixin.py:104} INFO - [2022-02-24 21:30:12,830] {dag.py:2305} INFO - Setting next_dagrun for example_complex to None
[2022-02-24 21:30:12,845] {scheduler_job.py:190} INFO - Processing /home/mlops/anaconda3/lib/python3.7/site-packages/airflow/example_dags/example_complex.py took 0.113 seconds
[2022-02-24 21:30:57,996] {scheduler_job.py:182} INFO - Started process (PID=12051) to work on /home/mlops/anaconda3/lib/python3.7/site-packages/airflow/example_dags/example_complex.py
[2022-02-24 21:30:57,999] {scheduler_job.py:633} INFO - Processing file /home/mlops/anaconda3/lib/python3.7/site-packages/airflow/example_dags/example_complex.py for tasks to queue
[2022-02-24 21:30:58,001] {logging_mixin.py:104} INFO - [2022-02-24 21:30:58,000] {dagbag.py:487} INFO - Filling up the DagBag from /home/mlops/anaconda3/lib/python3.7/site-packages/airflow/example_dags/example_complex.py
[2022-02-24 21:30:58,039] {scheduler_job.py:643} INFO - DAG(s) dict_keys(['example_complex']) retrieved from /home/mlops/anaconda3/lib/python3.7/site-packages/airflow/example_dags/example_complex.py
[2022-02-24 21:30:58,065] {logging_mixin.py:104} INFO - [2022-02-24 21:30:58,064] {dag.py:1832} INFO - Sync 1 DAGs
[2022-02-24 21:30:58,083] {logging_mixin.py:104} INFO - [2022-02-24 21:30:58,083] {dag.py:2305} INFO - Setting next_dagrun for example_complex to None
[2022-02-24 21:30:58,100] {scheduler_job.py:190} INFO - Processing /home/mlops/anaconda3/lib/python3.7/site-packages/airflow/example_dags/example_complex.py took 0.116 seconds
[2022-02-24 21:31:41,004] {scheduler_job.py:182} INFO - Started process (PID=12092) to work on /home/mlops/anaconda3/lib/python3.7/site-packages/airflow/example_dags/example_complex.py
[2022-02-24 21:31:41,008] {scheduler_job.py:633} INFO - Processing file /home/mlops/anaconda3/lib/python3.7/site-packages/airflow/example_dags/example_complex.py for tasks to queue
[2022-02-24 21:31:41,010] {logging_mixin.py:104} INFO - [2022-02-24 21:31:41,010] {dagbag.py:487} INFO - Filling up the DagBag from /home/mlops/anaconda3/lib/python3.7/site-packages/airflow/example_dags/example_complex.py
[2022-02-24 21:31:41,054] {scheduler_job.py:643} INFO - DAG(s) dict_keys(['example_complex']) retrieved from /home/mlops/anaconda3/lib/python3.7/site-packages/airflow/example_dags/example_complex.py
[2022-02-24 21:31:41,086] {logging_mixin.py:104} INFO - [2022-02-24 21:31:41,086] {dag.py:1832} INFO - Sync 1 DAGs
[2022-02-24 21:31:41,106] {logging_mixin.py:104} INFO - [2022-02-24 21:31:41,106] {dag.py:2305} INFO - Setting next_dagrun for example_complex to None
[2022-02-24 21:31:41,126] {scheduler_job.py:190} INFO - Processing /home/mlops/anaconda3/lib/python3.7/site-packages/airflow/example_dags/example_complex.py took 0.127 seconds
[2022-02-24 21:32:27,737] {scheduler_job.py:182} INFO - Started process (PID=12129) to work on /home/mlops/anaconda3/lib/python3.7/site-packages/airflow/example_dags/example_complex.py
[2022-02-24 21:32:27,741] {scheduler_job.py:633} INFO - Processing file /home/mlops/anaconda3/lib/python3.7/site-packages/airflow/example_dags/example_complex.py for tasks to queue
[2022-02-24 21:32:27,743] {logging_mixin.py:104} INFO - [2022-02-24 21:32:27,742] {dagbag.py:487} INFO - Filling up the DagBag from /home/mlops/anaconda3/lib/python3.7/site-packages/airflow/example_dags/example_complex.py
[2022-02-24 21:32:27,794] {scheduler_job.py:643} INFO - DAG(s) dict_keys(['example_complex']) retrieved from /home/mlops/anaconda3/lib/python3.7/site-packages/airflow/example_dags/example_complex.py
[2022-02-24 21:32:27,837] {logging_mixin.py:104} INFO - [2022-02-24 21:32:27,837] {dag.py:1832} INFO - Sync 1 DAGs
[2022-02-24 21:32:27,858] {logging_mixin.py:104} INFO - [2022-02-24 21:32:27,858] {dag.py:2305} INFO - Setting next_dagrun for example_complex to None
[2022-02-24 21:32:27,884] {scheduler_job.py:190} INFO - Processing /home/mlops/anaconda3/lib/python3.7/site-packages/airflow/example_dags/example_complex.py took 0.155 seconds
[2022-02-24 21:33:16,638] {scheduler_job.py:182} INFO - Started process (PID=12167) to work on /home/mlops/anaconda3/lib/python3.7/site-packages/airflow/example_dags/example_complex.py
[2022-02-24 21:33:16,641] {scheduler_job.py:633} INFO - Processing file /home/mlops/anaconda3/lib/python3.7/site-packages/airflow/example_dags/example_complex.py for tasks to queue
[2022-02-24 21:33:16,643] {logging_mixin.py:104} INFO - [2022-02-24 21:33:16,642] {dagbag.py:487} INFO - Filling up the DagBag from /home/mlops/anaconda3/lib/python3.7/site-packages/airflow/example_dags/example_complex.py
[2022-02-24 21:33:16,677] {scheduler_job.py:643} INFO - DAG(s) dict_keys(['example_complex']) retrieved from /home/mlops/anaconda3/lib/python3.7/site-packages/airflow/example_dags/example_complex.py
[2022-02-24 21:33:16,707] {logging_mixin.py:104} INFO - [2022-02-24 21:33:16,707] {dag.py:1832} INFO - Sync 1 DAGs
[2022-02-24 21:33:16,728] {logging_mixin.py:104} INFO - [2022-02-24 21:33:16,727] {dag.py:2305} INFO - Setting next_dagrun for example_complex to None
[2022-02-24 21:33:16,743] {scheduler_job.py:190} INFO - Processing /home/mlops/anaconda3/lib/python3.7/site-packages/airflow/example_dags/example_complex.py took 0.113 seconds
[2022-02-24 21:34:02,449] {scheduler_job.py:182} INFO - Started process (PID=12202) to work on /home/mlops/anaconda3/lib/python3.7/site-packages/airflow/example_dags/example_complex.py
[2022-02-24 21:34:02,452] {scheduler_job.py:633} INFO - Processing file /home/mlops/anaconda3/lib/python3.7/site-packages/airflow/example_dags/example_complex.py for tasks to queue
[2022-02-24 21:34:02,453] {logging_mixin.py:104} INFO - [2022-02-24 21:34:02,453] {dagbag.py:487} INFO - Filling up the DagBag from /home/mlops/anaconda3/lib/python3.7/site-packages/airflow/example_dags/example_complex.py
[2022-02-24 21:34:02,491] {scheduler_job.py:643} INFO - DAG(s) dict_keys(['example_complex']) retrieved from /home/mlops/anaconda3/lib/python3.7/site-packages/airflow/example_dags/example_complex.py
[2022-02-24 21:34:02,525] {logging_mixin.py:104} INFO - [2022-02-24 21:34:02,525] {dag.py:1832} INFO - Sync 1 DAGs
[2022-02-24 21:34:02,550] {logging_mixin.py:104} INFO - [2022-02-24 21:34:02,550] {dag.py:2305} INFO - Setting next_dagrun for example_complex to None
[2022-02-24 21:34:02,566] {scheduler_job.py:190} INFO - Processing /home/mlops/anaconda3/lib/python3.7/site-packages/airflow/example_dags/example_complex.py took 0.122 seconds
