[2022-03-02 20:56:37,902] {taskinstance.py:876} INFO - Dependencies all met for <TaskInstance: dag-pipeline-iris-aula-ia-v1.etl.download_dataset 2022-03-02T23:46:33.320197+00:00 [queued]>
[2022-03-02 20:56:37,917] {taskinstance.py:876} INFO - Dependencies all met for <TaskInstance: dag-pipeline-iris-aula-ia-v1.etl.download_dataset 2022-03-02T23:46:33.320197+00:00 [queued]>
[2022-03-02 20:56:37,917] {taskinstance.py:1067} INFO - 
--------------------------------------------------------------------------------
[2022-03-02 20:56:37,917] {taskinstance.py:1068} INFO - Starting attempt 1 of 1
[2022-03-02 20:56:37,917] {taskinstance.py:1069} INFO - 
--------------------------------------------------------------------------------
[2022-03-02 20:56:37,932] {taskinstance.py:1087} INFO - Executing <Task(BashOperator): etl.download_dataset> on 2022-03-02T23:46:33.320197+00:00
[2022-03-02 20:56:37,935] {standard_task_runner.py:52} INFO - Started process 11090 to run task
[2022-03-02 20:56:37,942] {standard_task_runner.py:76} INFO - Running: ['airflow', 'tasks', 'run', 'dag-pipeline-iris-aula-ia-v1', 'etl.download_dataset', '2022-03-02T23:46:33.320197+00:00', '--job-id', '256', '--pool', 'default_pool', '--raw', '--subdir', 'DAGS_FOLDER/DagIrisV1.py', '--cfg-path', '/tmp/tmp37xk5hvt', '--error-file', '/tmp/tmprhqw3q8p']
[2022-03-02 20:56:37,943] {standard_task_runner.py:77} INFO - Job 256: Subtask etl.download_dataset
[2022-03-02 20:56:37,991] {logging_mixin.py:104} INFO - Running <TaskInstance: dag-pipeline-iris-aula-ia-v1.etl.download_dataset 2022-03-02T23:46:33.320197+00:00 [running]> on host mlops-VirtualBox
[2022-03-02 20:56:38,044] {taskinstance.py:1282} INFO - Exporting the following env vars:
AIRFLOW_CTX_DAG_OWNER=teste
AIRFLOW_CTX_DAG_ID=dag-pipeline-iris-aula-ia-v1
AIRFLOW_CTX_TASK_ID=etl.download_dataset
AIRFLOW_CTX_EXECUTION_DATE=2022-03-02T23:46:33.320197+00:00
AIRFLOW_CTX_DAG_RUN_ID=scheduled__2022-03-02T23:46:33.320197+00:00
[2022-03-02 20:56:38,045] {subprocess.py:52} INFO - Tmp dir root location: 
 /tmp
[2022-03-02 20:56:38,046] {subprocess.py:63} INFO - Running command: ['bash', '-c', '\n            cd /home/mlops/airflow/dags/etl_scripts/featurestore\n            curl -o iris.txt https://archive.ics.uci.edu/ml/machine-learning-databases/iris/iris.data\n            ']
[2022-03-02 20:56:38,055] {subprocess.py:75} INFO - Output:
[2022-03-02 20:56:38,062] {subprocess.py:79} INFO -   % Total    % Received % Xferd  Average Speed   Time    Time     Time  Current
[2022-03-02 20:56:38,063] {subprocess.py:79} INFO -                                  Dload  Upload   Total   Spent    Left  Speed
[2022-03-02 20:56:44,216] {subprocess.py:79} INFO -   0     0    0     0    0     0      0      0 --:--:-- --:--:-- --:--:--     0  0     0    0     0    0     0      0      0 --:--:-- --:--:-- --:--:--     0  0     0    0     0    0     0      0      0 --:--:--  0:00:01 --:--:--     0  0     0    0     0    0     0      0      0 --:--:--  0:00:02 --:--:--     0  0     0    0     0    0     0      0      0 --:--:--  0:00:03 --:--:--     0  0     0    0     0    0     0      0      0 --:--:--  0:00:04 --:--:--     0  0     0    0     0    0     0      0      0 --:--:--  0:00:05 --:--:--     0100  4551  100  4551    0     0    739      0  0:00:06  0:00:06 --:--:--   977
[2022-03-02 20:56:44,219] {subprocess.py:83} INFO - Command exited with return code 0
[2022-03-02 20:56:44,238] {taskinstance.py:1191} INFO - Marking task as SUCCESS. dag_id=dag-pipeline-iris-aula-ia-v1, task_id=etl.download_dataset, execution_date=20220302T234633, start_date=20220302T235637, end_date=20220302T235644
[2022-03-02 20:56:44,271] {taskinstance.py:1245} INFO - 1 downstream tasks scheduled from follow-on schedule check
[2022-03-02 20:56:44,277] {local_task_job.py:151} INFO - Task exited with return code 0
