[2022-02-28 11:35:12,964] {taskinstance.py:876} INFO - Dependencies all met for <TaskInstance: dag-pipeline-iris-aula-ia-v1.modelProcessing.algoritmo2 2022-02-28T14:34:47.436673+00:00 [queued]>
[2022-02-28 11:35:12,987] {taskinstance.py:876} INFO - Dependencies all met for <TaskInstance: dag-pipeline-iris-aula-ia-v1.modelProcessing.algoritmo2 2022-02-28T14:34:47.436673+00:00 [queued]>
[2022-02-28 11:35:12,988] {taskinstance.py:1067} INFO - 
--------------------------------------------------------------------------------
[2022-02-28 11:35:12,988] {taskinstance.py:1068} INFO - Starting attempt 1 of 1
[2022-02-28 11:35:12,988] {taskinstance.py:1069} INFO - 
--------------------------------------------------------------------------------
[2022-02-28 11:35:13,024] {taskinstance.py:1087} INFO - Executing <Task(BashOperator): modelProcessing.algoritmo2> on 2022-02-28T14:34:47.436673+00:00
[2022-02-28 11:35:13,028] {standard_task_runner.py:52} INFO - Started process 8306 to run task
[2022-02-28 11:35:13,041] {standard_task_runner.py:76} INFO - Running: ['airflow', 'tasks', 'run', 'dag-pipeline-iris-aula-ia-v1', 'modelProcessing.algoritmo2', '2022-02-28T14:34:47.436673+00:00', '--job-id', '172', '--pool', 'default_pool', '--raw', '--subdir', 'DAGS_FOLDER/DagIrisV1.py', '--cfg-path', '/tmp/tmpjerwkn9c', '--error-file', '/tmp/tmpb8pfoztd']
[2022-02-28 11:35:13,042] {standard_task_runner.py:77} INFO - Job 172: Subtask modelProcessing.algoritmo2
[2022-02-28 11:35:13,091] {logging_mixin.py:104} INFO - Running <TaskInstance: dag-pipeline-iris-aula-ia-v1.modelProcessing.algoritmo2 2022-02-28T14:34:47.436673+00:00 [running]> on host mlops-VirtualBox
[2022-02-28 11:35:13,152] {taskinstance.py:1282} INFO - Exporting the following env vars:
AIRFLOW_CTX_DAG_OWNER=teste
AIRFLOW_CTX_DAG_ID=dag-pipeline-iris-aula-ia-v1
AIRFLOW_CTX_TASK_ID=modelProcessing.algoritmo2
AIRFLOW_CTX_EXECUTION_DATE=2022-02-28T14:34:47.436673+00:00
AIRFLOW_CTX_DAG_RUN_ID=manual__2022-02-28T14:34:47.436673+00:00
[2022-02-28 11:35:13,154] {subprocess.py:52} INFO - Tmp dir root location: 
 /tmp
[2022-02-28 11:35:13,155] {subprocess.py:63} INFO - Running command: ['bash', '-c', '\n            cd /home/mlops/airflow/dags/etl_scripts\n            python model_processing.py /home/mlops/airflow/dags/etl_scripts/featurestore/iris.txt /home/mlops/airflow/dags/etl_scripts/featurestore/irisEncoder.txt\n            ']
[2022-02-28 11:35:13,164] {subprocess.py:75} INFO - Output:
[2022-02-28 11:35:17,057] {subprocess.py:79} INFO - Traceback (most recent call last):
[2022-02-28 11:35:17,057] {subprocess.py:79} INFO -   File "model_processing.py", line 54, in <module>
[2022-02-28 11:35:17,057] {subprocess.py:79} INFO -     idExperiment = mlflow.create_experiment('teste123')
[2022-02-28 11:35:17,057] {subprocess.py:79} INFO -   File "/home/mlops/anaconda3/lib/python3.7/site-packages/mlflow/tracking/fluent.py", line 850, in create_experiment
[2022-02-28 11:35:17,057] {subprocess.py:79} INFO -     return MlflowClient().create_experiment(name, artifact_location)
[2022-02-28 11:35:17,057] {subprocess.py:79} INFO -   File "/home/mlops/anaconda3/lib/python3.7/site-packages/mlflow/tracking/client.py", line 471, in create_experiment
[2022-02-28 11:35:17,057] {subprocess.py:79} INFO -     return self._tracking_client.create_experiment(name, artifact_location)
[2022-02-28 11:35:17,057] {subprocess.py:79} INFO -   File "/home/mlops/anaconda3/lib/python3.7/site-packages/mlflow/tracking/_tracking_service/client.py", line 140, in create_experiment
[2022-02-28 11:35:17,057] {subprocess.py:79} INFO -     return self.store.create_experiment(name=name, artifact_location=artifact_location,)
[2022-02-28 11:35:17,057] {subprocess.py:79} INFO -   File "/home/mlops/anaconda3/lib/python3.7/site-packages/mlflow/store/tracking/file_store.py", line 286, in create_experiment
[2022-02-28 11:35:17,057] {subprocess.py:79} INFO -     self._validate_experiment_name(name)
[2022-02-28 11:35:17,058] {subprocess.py:79} INFO -   File "/home/mlops/anaconda3/lib/python3.7/site-packages/mlflow/store/tracking/file_store.py", line 281, in _validate_experiment_name
[2022-02-28 11:35:17,058] {subprocess.py:79} INFO -     databricks_pb2.RESOURCE_ALREADY_EXISTS,
[2022-02-28 11:35:17,058] {subprocess.py:79} INFO - mlflow.exceptions.MlflowException: Experiment 'teste123' already exists.
[2022-02-28 11:35:17,342] {subprocess.py:83} INFO - Command exited with return code 1
[2022-02-28 11:35:17,350] {taskinstance.py:1481} ERROR - Task failed with exception
Traceback (most recent call last):
  File "/home/mlops/anaconda3/lib/python3.7/site-packages/airflow/models/taskinstance.py", line 1137, in _run_raw_task
    self._prepare_and_execute_task_with_callbacks(context, task)
  File "/home/mlops/anaconda3/lib/python3.7/site-packages/airflow/models/taskinstance.py", line 1311, in _prepare_and_execute_task_with_callbacks
    result = self._execute_task(context, task_copy)
  File "/home/mlops/anaconda3/lib/python3.7/site-packages/airflow/models/taskinstance.py", line 1341, in _execute_task
    result = task_copy.execute(context=context)
  File "/home/mlops/anaconda3/lib/python3.7/site-packages/airflow/operators/bash.py", line 180, in execute
    raise AirflowException('Bash command failed. The command returned a non-zero exit code.')
airflow.exceptions.AirflowException: Bash command failed. The command returned a non-zero exit code.
[2022-02-28 11:35:17,352] {taskinstance.py:1531} INFO - Marking task as FAILED. dag_id=dag-pipeline-iris-aula-ia-v1, task_id=modelProcessing.algoritmo2, execution_date=20220228T143447, start_date=20220228T143512, end_date=20220228T143517
[2022-02-28 11:35:17,425] {local_task_job.py:151} INFO - Task exited with return code 1
