[2022-02-27 13:07:13,516] {taskinstance.py:876} INFO - Dependencies all met for <TaskInstance: dag-pipeline-iris-aula-ia-v1.modelProcessing.algoritmo1 2022-02-27T15:56:56.803564+00:00 [queued]>
[2022-02-27 13:07:13,528] {taskinstance.py:876} INFO - Dependencies all met for <TaskInstance: dag-pipeline-iris-aula-ia-v1.modelProcessing.algoritmo1 2022-02-27T15:56:56.803564+00:00 [queued]>
[2022-02-27 13:07:13,528] {taskinstance.py:1067} INFO - 
--------------------------------------------------------------------------------
[2022-02-27 13:07:13,528] {taskinstance.py:1068} INFO - Starting attempt 1 of 1
[2022-02-27 13:07:13,528] {taskinstance.py:1069} INFO - 
--------------------------------------------------------------------------------
[2022-02-27 13:07:13,542] {taskinstance.py:1087} INFO - Executing <Task(BashOperator): modelProcessing.algoritmo1> on 2022-02-27T15:56:56.803564+00:00
[2022-02-27 13:07:13,545] {standard_task_runner.py:52} INFO - Started process 12706 to run task
[2022-02-27 13:07:13,552] {standard_task_runner.py:76} INFO - Running: ['airflow', 'tasks', 'run', 'dag-pipeline-iris-aula-ia-v1', 'modelProcessing.algoritmo1', '2022-02-27T15:56:56.803564+00:00', '--job-id', '130', '--pool', 'default_pool', '--raw', '--subdir', 'DAGS_FOLDER/DagIrisV1.py', '--cfg-path', '/tmp/tmp0x1u7gyj', '--error-file', '/tmp/tmp575q_9sk']
[2022-02-27 13:07:13,552] {standard_task_runner.py:77} INFO - Job 130: Subtask modelProcessing.algoritmo1
[2022-02-27 13:07:13,592] {logging_mixin.py:104} INFO - Running <TaskInstance: dag-pipeline-iris-aula-ia-v1.modelProcessing.algoritmo1 2022-02-27T15:56:56.803564+00:00 [running]> on host mlops-VirtualBox
[2022-02-27 13:07:13,647] {taskinstance.py:1282} INFO - Exporting the following env vars:
AIRFLOW_CTX_DAG_OWNER=teste
AIRFLOW_CTX_DAG_ID=dag-pipeline-iris-aula-ia-v1
AIRFLOW_CTX_TASK_ID=modelProcessing.algoritmo1
AIRFLOW_CTX_EXECUTION_DATE=2022-02-27T15:56:56.803564+00:00
AIRFLOW_CTX_DAG_RUN_ID=scheduled__2022-02-27T15:56:56.803564+00:00
[2022-02-27 13:07:13,649] {subprocess.py:52} INFO - Tmp dir root location: 
 /tmp
[2022-02-27 13:07:13,650] {subprocess.py:63} INFO - Running command: ['bash', '-c', '\n            cd /home/mlops/airflow/dags/etl_scripts\n            python model_processing.py /home/mlops/airflow/dags/etl_scripts/featurestore/iris.txt /home/mlops/airflow/dags/etl_scripts/featurestore/irisEncoder.txt\n            ']
[2022-02-27 13:07:13,659] {subprocess.py:75} INFO - Output:
[2022-02-27 13:07:17,444] {subprocess.py:83} INFO - Command exited with return code 0
[2022-02-27 13:07:17,468] {taskinstance.py:1191} INFO - Marking task as SUCCESS. dag_id=dag-pipeline-iris-aula-ia-v1, task_id=modelProcessing.algoritmo1, execution_date=20220227T155656, start_date=20220227T160713, end_date=20220227T160717
[2022-02-27 13:07:17,499] {taskinstance.py:1245} INFO - 0 downstream tasks scheduled from follow-on schedule check
[2022-02-27 13:07:17,514] {local_task_job.py:151} INFO - Task exited with return code 0
